#source: Hsu et al. 2019: 2-layer (2L) film; n,k 0.40-0.86 µm https://refractiveindex.info/?shelf=main&book=MoS2&page=Hsu-2L		
#wavelength [nm]	n	k
396.97	3.9524	2.0252
397.19	3.6825	2.1035
397.41	3.659	2.109
397.62	3.6381	2.1059
397.84	3.6222	2.0986
398.06	3.6139	2.095
398.27	3.6051	2.0906
398.49	3.5987	2.0866
398.71	3.5727	2.0887
398.93	3.5746	2.0823
399.14	3.5727	2.0768
399.36	3.5695	2.0722
399.58	3.5651	2.0675
399.8	3.5619	2.0629
400.01	3.56	2.0607
400.23	3.5581	2.0595
400.45	3.5549	2.0574
400.66	3.5505	2.0552
400.88	3.5473	2.0531
401.1	3.5441	2.051
401.32	3.5422	2.0497
401.53	3.539	2.0493
401.75	3.5371	2.0497
401.97	3.534	2.0502
402.19	3.5333	2.0506
402.4	3.5289	2.0527
402.62	3.5232	2.054
402.84	3.5175	2.0552
403.06	3.513	2.0565
403.27	3.5086	2.0578
403.49	3.5041	2.059
403.71	3.4997	2.0612
403.93	3.4965	2.0633
404.14	3.4921	2.0654
404.36	3.4876	2.0684
404.58	3.4819	2.0713
404.8	3.4762	2.0743
405.01	3.4705	2.0756
405.23	3.4635	2.0777
405.45	3.4552	2.0798
405.67	3.4495	2.0811
405.89	3.4425	2.084
406.1	3.4368	2.087
406.32	3.4298	2.0899
406.54	3.4229	2.0938
406.76	3.4171	2.0976
406.97	3.4114	2.1005
407.19	3.4057	2.1035
407.41	3.4	2.1073
407.63	3.3943	2.1111
407.85	3.3886	2.1149
408.06	3.3841	2.1187
408.28	3.3784	2.1234
408.5	3.3752	2.1272
408.72	3.3721	2.131
408.94	3.3676	2.1357
409.15	3.3657	2.1386
409.37	3.3638	2.1424
409.59	3.3619	2.1462
409.81	3.3613	2.15
410.02	3.3594	2.1539
410.24	3.3587	2.1585
410.46	3.3581	2.1632
410.68	3.3587	2.1678
410.9	3.3594	2.1716
411.11	3.3613	2.1763
411.33	3.3619	2.1809
411.55	3.3638	2.1856
411.77	3.3657	2.1911
411.99	3.3689	2.1966
412.21	3.3721	2.2021
412.42	3.3752	2.2076
412.64	3.3784	2.2131
412.86	3.3816	2.2186
413.08	3.3848	2.2233
413.3	3.3892	2.2279
413.51	3.3924	2.2326
413.73	3.3956	2.2372
413.95	3.3987	2.2411
414.17	3.4032	2.2457
414.39	3.4063	2.2487
414.61	3.4108	2.2525
414.82	3.414	2.2554
415.04	3.4171	2.2584
415.26	3.4203	2.2614
415.48	3.4235	2.2643
415.7	3.4267	2.2681
415.92	3.4298	2.272
416.13	3.433	2.2758
416.35	3.4362	2.2796
416.57	3.4394	2.2834
416.79	3.4438	2.2872
417.01	3.4483	2.291
417.23	3.4527	2.2948
417.45	3.4559	2.2986
417.66	3.4603	2.3033
417.88	3.4648	2.3062
418.1	3.4705	2.3092
418.32	3.4762	2.3122
418.54	3.4819	2.3151
418.76	3.4889	2.3181
418.97	3.4959	2.3202
419.19	3.5029	2.3232
419.41	3.5111	2.3261
419.63	3.5194	2.3291
419.85	3.5276	2.3321
420.07	3.5359	2.3359
420.29	3.5441	2.3388
420.51	3.5524	2.3426
420.72	3.5619	2.3456
420.94	3.5714	2.3486
421.16	3.5797	2.3524
421.38	3.5879	2.357
421.6	3.5975	2.3617
421.82	3.607	2.3655
422.04	3.6165	2.3693
422.26	3.626	2.374
422.47	3.6356	2.3769
422.69	3.6463	2.3799
422.91	3.6571	2.3837
423.13	3.6679	2.3875
423.35	3.6787	2.3905
423.57	3.6895	2.3934
423.79	3.7003	2.3964
424.01	3.7111	2.4002
424.23	3.7219	2.404
424.44	3.734	2.4078
424.66	3.746	2.4108
424.88	3.7568	2.4138
425.1	3.7676	2.4167
425.32	3.7784	2.4197
425.54	3.7892	2.4226
425.76	3.8	2.4265
425.98	3.8095	2.4294
426.2	3.819	2.4324
426.42	3.8286	2.4345
426.63	3.8381	2.4366
426.85	3.8476	2.4387
427.07	3.8571	2.4408
427.29	3.8667	2.4421
427.51	3.8775	2.4434
427.73	3.8883	2.4447
427.95	3.899	2.4468
428.17	3.9111	2.4489
428.39	3.9232	2.451
428.61	3.9352	2.4531
428.83	3.9473	2.4552
429.05	3.9594	2.4565
429.27	3.9714	2.4586
429.48	3.9835	2.4599
429.7	3.9956	2.462
429.92	4.0076	2.4641
430.14	4.0197	2.4662
430.36	4.033	2.4684
430.58	4.0463	2.4713
430.8	4.0584	2.4734
431.02	4.0705	2.4747
431.24	4.0838	2.476
431.46	4.0959	2.4772
431.68	4.1079	2.4794
431.9	4.12	2.4806
432.12	4.1321	2.4819
432.34	4.1441	2.4832
432.56	4.1562	2.4836
432.78	4.1683	2.4849
433	4.1803	2.4853
433.21	4.1937	2.4857
433.43	4.207	2.487
433.65	4.219	2.4874
433.87	4.2311	2.487
434.09	4.2432	2.4874
434.31	4.2552	2.4878
434.53	4.266	2.4874
434.75	4.2768	2.4861
434.97	4.2876	2.4849
435.19	4.2984	2.4836
435.41	4.3092	2.4815
435.63	4.3213	2.4802
435.85	4.3333	2.4789
436.07	4.3454	2.4777
436.29	4.3575	2.4756
436.51	4.3683	2.4734
436.73	4.379	2.4705
436.95	4.3898	2.4675
437.17	4.4006	2.4645
437.39	4.4114	2.4616
437.61	4.4222	2.4586
437.83	4.4343	2.4565
438.05	4.4463	2.4544
438.27	4.4571	2.4506
438.49	4.4692	2.4476
438.71	4.4813	2.4447
438.93	4.4921	2.4408
439.15	4.5041	2.4379
439.37	4.5162	2.4349
439.59	4.5283	2.4328
439.81	4.5416	2.4307
440.03	4.5549	2.4286
440.25	4.5683	2.4265
440.47	4.5829	2.4252
440.69	4.5975	2.4231
440.91	4.6121	2.4209
441.13	4.6254	2.418
441.35	4.6387	2.415
441.57	4.6533	2.4129
441.79	4.6667	2.4099
442.01	4.68	2.407
442.23	4.6933	2.404
442.45	4.7054	2.4002
442.67	4.7175	2.3956
442.89	4.7295	2.3909
443.11	4.7403	2.3854
443.33	4.7511	2.3799
443.55	4.7632	2.3752
443.77	4.774	2.3697
443.99	4.7848	2.3642
444.21	4.7956	2.3579
444.43	4.8063	2.3515
444.65	4.8171	2.3452
444.87	4.8292	2.3397
445.09	4.8413	2.3342
445.31	4.8533	2.3287
445.53	4.8654	2.3232
445.75	4.8775	2.3177
445.97	4.8908	2.313
446.19	4.9041	2.3084
446.41	4.9175	2.3037
446.63	4.9308	2.299
446.85	4.9429	2.2935
447.07	4.9549	2.2872
447.29	4.9683	2.2825
447.52	4.9816	2.2787
447.74	4.9949	2.2749
447.96	5.0083	2.2711
448.18	5.0216	2.2673
448.4	5.0349	2.2635
448.62	5.0483	2.2605
448.84	5.0629	2.2584
449.06	5.0775	2.2563
449.28	5.0908	2.2525
449.5	5.1041	2.2487
449.72	5.1175	2.2449
449.94	5.1308	2.2411
450.16	5.1454	2.2389
450.38	5.16	2.2368
450.6	5.1733	2.233
450.82	5.1867	2.2292
451.04	5.2	2.2254
451.27	5.2146	2.2233
451.49	5.2279	2.2203
451.71	5.2413	2.2174
451.93	5.2546	2.2135
452.15	5.2667	2.2089
452.37	5.2787	2.2042
452.59	5.2908	2.2004
452.81	5.3029	2.1966
453.03	5.3149	2.1928
453.25	5.327	2.189
453.47	5.339	2.1852
453.69	5.3511	2.1822
453.91	5.3619	2.1776
454.14	5.3727	2.1729
454.36	5.3848	2.1699
454.58	5.3956	2.1653
454.8	5.4063	2.1606
455.02	5.4171	2.156
455.24	5.4279	2.1513
455.46	5.4387	2.1467
455.68	5.4495	2.142
455.9	5.4603	2.1382
456.12	5.4711	2.1344
456.35	5.4832	2.1323
456.57	5.4952	2.1302
456.79	5.506	2.1263
457.01	5.5168	2.1225
457.23	5.5289	2.1213
457.45	5.541	2.12
457.67	5.5517	2.117
457.89	5.5613	2.1132
458.11	5.5721	2.1111
458.34	5.5829	2.109
458.56	5.5937	2.1069
458.78	5.6044	2.1056
459	5.6152	2.1043
459.22	5.626	2.1022
459.44	5.6356	2.0993
459.66	5.6451	2.0963
459.88	5.6546	2.0933
460.1	5.6629	2.0895
460.33	5.6711	2.0857
460.55	5.6794	2.0811
460.77	5.6876	2.0772
460.99	5.6959	2.0734
461.21	5.7054	2.0705
461.43	5.7137	2.0658
461.65	5.7219	2.062
461.88	5.7302	2.0582
462.1	5.7384	2.0535
462.32	5.7454	2.048
462.54	5.7524	2.0425
462.76	5.7606	2.0387
462.98	5.7676	2.0332
463.2	5.7733	2.0269
463.43	5.7803	2.0214
463.65	5.7873	2.0159
463.87	5.7943	2.0112
464.09	5.8013	2.0057
464.31	5.8083	2.0011
464.53	5.8152	1.9964
464.75	5.8222	1.9917
464.98	5.8279	1.9854
465.2	5.8337	1.979
465.42	5.8394	1.9735
465.64	5.8451	1.968
465.86	5.8508	1.9625
466.08	5.8565	1.957
466.31	5.8622	1.9515
466.53	5.8679	1.946
466.75	5.8737	1.9405
466.97	5.8794	1.9359
467.19	5.8838	1.9295
467.41	5.8883	1.9232
467.64	5.8927	1.9168
467.86	5.8971	1.9105
468.08	5.9003	1.9033
468.3	5.9048	1.8978
468.52	5.9092	1.8923
468.75	5.9124	1.8851
468.97	5.9156	1.8779
469.19	5.9187	1.8715
469.41	5.9219	1.8643
469.63	5.9238	1.8563
469.85	5.927	1.8499
470.08	5.9302	1.8436
470.3	5.9321	1.8356
470.52	5.9352	1.8292
470.74	5.9384	1.8229
470.96	5.9403	1.8148
471.19	5.9422	1.8076
471.41	5.9441	1.8004
471.63	5.946	1.7932
471.85	5.9467	1.7852
472.07	5.9486	1.778
472.3	5.9517	1.7725
472.52	5.9537	1.7653
472.74	5.9543	1.7572
472.96	5.9562	1.7509
473.18	5.9568	1.7429
473.41	5.9575	1.7348
473.63	5.9594	1.7285
473.85	5.96	1.7204
474.07	5.9606	1.7132
474.3	5.9613	1.706
474.52	5.9606	1.6971
474.74	5.9613	1.6899
474.96	5.9606	1.6811
475.18	5.9613	1.6739
475.41	5.9606	1.6658
475.63	5.96	1.6578
475.85	5.9594	1.6497
476.07	5.96	1.6425
476.3	5.9594	1.6345
476.52	5.96	1.6273
476.74	5.9594	1.6201
476.96	5.9587	1.6121
477.18	5.9581	1.604
477.41	5.9562	1.5951
477.63	5.9556	1.5871
477.85	5.9549	1.5799
478.07	5.9543	1.5718
478.3	5.9537	1.5647
478.52	5.953	1.5566
478.74	5.9524	1.5494
478.96	5.9505	1.5405
479.19	5.9498	1.5333
479.41	5.9479	1.5253
479.63	5.9473	1.5172
479.85	5.9454	1.5092
480.08	5.9435	1.5012
480.3	5.9416	1.4931
480.52	5.9397	1.4859
480.74	5.939	1.4787
480.97	5.9371	1.4715
481.19	5.9365	1.4643
481.41	5.9346	1.4571
481.63	5.9327	1.4491
481.86	5.9308	1.4419
482.08	5.9289	1.4347
482.3	5.927	1.4275
482.53	5.9251	1.4203
482.75	5.9232	1.4131
482.97	5.92	1.4059
483.19	5.9181	1.3996
483.42	5.9162	1.3924
483.64	5.9143	1.386
483.86	5.9124	1.3788
484.08	5.9092	1.3716
484.31	5.9073	1.3653
484.53	5.9041	1.3581
484.75	5.901	1.3509
484.98	5.899	1.3454
485.2	5.8959	1.3382
485.42	5.894	1.3318
485.64	5.8921	1.3263
485.87	5.8889	1.3191
486.09	5.887	1.3136
486.31	5.8851	1.3081
486.54	5.8819	1.3009
486.76	5.88	1.2954
486.98	5.8768	1.2891
487.2	5.8749	1.2836
487.43	5.873	1.2781
487.65	5.8698	1.2717
487.87	5.8667	1.2662
488.1	5.8648	1.2607
488.32	5.8616	1.2544
488.54	5.8584	1.2489
488.77	5.8552	1.2425
488.99	5.8521	1.2362
489.21	5.8489	1.2307
489.43	5.8457	1.2243
489.66	5.8425	1.218
489.88	5.8406	1.2133
490.1	5.8375	1.2078
490.33	5.8343	1.2015
490.55	5.8311	1.196
490.77	5.8279	1.1905
491	5.8248	1.185
491.22	5.8229	1.1795
491.44	5.8197	1.174
491.67	5.8165	1.1685
491.89	5.8146	1.1638
492.11	5.8114	1.1583
492.34	5.8095	1.1536
492.56	5.8076	1.149
492.78	5.8044	1.1443
493.01	5.8013	1.1397
493.23	5.7981	1.1342
493.45	5.7949	1.1287
493.68	5.793	1.1249
493.9	5.7898	1.1202
494.12	5.7867	1.1156
494.35	5.7848	1.1109
494.57	5.7816	1.1062
494.79	5.7784	1.1016
495.02	5.7765	1.0978
495.24	5.7733	1.0931
495.46	5.7714	1.0893
495.69	5.7683	1.0847
495.91	5.7651	1.08
496.13	5.7619	1.0753
496.36	5.76	1.0715
496.58	5.7568	1.0677
496.8	5.7537	1.0639
497.03	5.7505	1.0593
497.25	5.7473	1.0546
497.48	5.7441	1.0499
497.7	5.741	1.0461
497.92	5.7378	1.0423
498.15	5.7346	1.0385
498.37	5.7302	1.0339
498.59	5.727	1.03
498.82	5.7225	1.0262
499.04	5.7194	1.0224
499.26	5.7162	1.0186
499.49	5.713	1.0148
499.71	5.7098	1.011
499.94	5.7067	1.0072
500.16	5.7035	1.0034
500.38	5.699	0.99957
500.61	5.6959	0.99661
500.83	5.6927	0.99365
501.05	5.6883	0.98984
501.28	5.6838	0.98603
501.5	5.6806	0.98307
501.73	5.6775	0.9801
501.95	5.673	0.97629
502.17	5.6686	0.97248
502.4	5.6641	0.96952
502.62	5.6597	0.96656
502.85	5.6552	0.96359
503.07	5.6508	0.96063
503.29	5.6463	0.95767
503.52	5.6419	0.95471
503.74	5.6387	0.95259
503.97	5.6343	0.94963
504.19	5.6298	0.94666
504.41	5.6254	0.9437
504.64	5.6222	0.94158
504.86	5.6178	0.93862
505.09	5.6133	0.93566
505.31	5.6102	0.93354
505.53	5.607	0.93142
505.76	5.6025	0.92846
505.98	5.5981	0.9255
506.21	5.5949	0.92338
506.43	5.5905	0.92042
506.65	5.586	0.91746
506.88	5.5829	0.91534
507.1	5.5784	0.91238
507.33	5.574	0.90941
507.55	5.5708	0.9073
507.78	5.5676	0.90518
508	5.5632	0.90222
508.22	5.5587	0.89926
508.45	5.5556	0.89714
508.67	5.5511	0.89418
508.9	5.5467	0.89206
509.12	5.5422	0.88994
509.34	5.539	0.88783
509.57	5.5346	0.88571
509.79	5.5302	0.88359
510.02	5.5257	0.88148
510.24	5.5213	0.87936
510.47	5.5168	0.87725
510.69	5.5124	0.87513
510.92	5.5079	0.87301
511.14	5.5035	0.8709
511.36	5.499	0.86878
511.59	5.4946	0.86666
511.81	5.4902	0.86455
512.04	5.4857	0.86243
512.26	5.4813	0.86031
512.49	5.4768	0.8582
512.71	5.4724	0.85693
512.94	5.4679	0.85481
513.16	5.4635	0.85269
513.38	5.4603	0.85142
513.61	5.4559	0.84931
513.83	5.4514	0.84719
514.06	5.447	0.84592
514.28	5.4413	0.84381
514.51	5.4368	0.84254
514.73	5.4324	0.84127
514.96	5.4279	0.84
515.18	5.4235	0.83873
515.41	5.419	0.83746
515.63	5.4146	0.83619
515.86	5.4102	0.83492
516.08	5.4044	0.8328
516.3	5.4	0.83153
516.53	5.3956	0.83026
516.75	5.3898	0.82899
516.98	5.3841	0.82772
517.2	5.3797	0.8273
517.43	5.3752	0.82603
517.65	5.3708	0.8256
517.88	5.3651	0.82433
518.1	5.3606	0.82391
518.33	5.3562	0.82349
518.55	5.3505	0.82222
518.78	5.3448	0.8218
519	5.339	0.82053
519.23	5.3346	0.8201
519.45	5.3302	0.81968
519.68	5.3244	0.81841
519.9	5.3187	0.81799
520.13	5.3143	0.81756
520.35	5.3098	0.81714
520.58	5.3041	0.81587
520.8	5.2984	0.81545
521.03	5.2927	0.81418
521.25	5.2883	0.81375
521.48	5.2825	0.81248
521.7	5.2768	0.81206
521.93	5.2711	0.81164
522.15	5.2667	0.81121
522.38	5.2622	0.81079
522.6	5.2565	0.81037
522.83	5.2508	0.80994
523.05	5.2463	0.81037
523.28	5.2419	0.80994
523.5	5.2362	0.80867
523.73	5.2305	0.80825
523.95	5.2248	0.80783
524.18	5.2203	0.8074
524.4	5.2159	0.80698
524.63	5.2102	0.80656
524.85	5.2044	0.80613
525.08	5.2	0.80571
525.3	5.1956	0.80529
525.53	5.1898	0.80486
525.75	5.1841	0.80444
525.98	5.1784	0.80402
526.21	5.1727	0.80359
526.43	5.167	0.80317
526.66	5.1613	0.80275
526.88	5.1556	0.80317
527.11	5.1498	0.80275
527.33	5.1454	0.80317
527.56	5.1397	0.80275
527.78	5.134	0.80317
528.01	5.1283	0.80275
528.23	5.1225	0.80317
528.46	5.1168	0.80359
528.68	5.1111	0.80402
528.91	5.1054	0.80444
529.14	5.0997	0.80486
529.36	5.0952	0.80529
529.59	5.0908	0.80656
529.81	5.0851	0.80698
530.04	5.0794	0.80825
530.26	5.0737	0.80867
530.49	5.0692	0.80994
530.71	5.0635	0.81037
530.94	5.0578	0.81164
531.17	5.0533	0.81291
531.39	5.0489	0.81418
531.62	5.0444	0.81545
531.84	5.0387	0.81587
532.07	5.0343	0.81714
532.29	5.0298	0.81841
532.52	5.0254	0.81968
532.74	5.021	0.82095
532.97	5.0165	0.82222
533.2	5.0121	0.82349
533.42	5.0089	0.82476
533.65	5.0057	0.82603
533.87	5.0013	0.8273
534.1	4.9981	0.82941
534.32	4.9949	0.83153
534.55	4.9905	0.8328
534.78	4.9873	0.83492
535	4.9841	0.83703
535.23	4.981	0.83915
535.45	4.9778	0.84127
535.68	4.9746	0.84338
535.91	4.9714	0.8455
536.13	4.9683	0.84762
536.36	4.9651	0.84973
536.58	4.9619	0.85185
536.81	4.9587	0.85396
537.04	4.9568	0.85693
537.26	4.9549	0.85904
537.49	4.9517	0.86116
537.71	4.9498	0.86328
537.94	4.9479	0.86624
538.16	4.946	0.86836
538.39	4.9441	0.87047
538.62	4.9435	0.87344
538.84	4.9416	0.8764
539.07	4.941	0.87936
539.3	4.9403	0.88232
539.52	4.9397	0.88529
539.75	4.939	0.88825
539.97	4.9397	0.89121
540.2	4.939	0.89418
540.43	4.9384	0.89714
540.65	4.939	0.90095
540.88	4.9397	0.90391
541.1	4.9403	0.90687
541.33	4.941	0.90984
541.56	4.9416	0.91365
541.78	4.9435	0.91746
542.01	4.9441	0.92042
542.23	4.946	0.92338
542.46	4.9479	0.92635
542.69	4.9498	0.92931
542.91	4.9517	0.93227
543.14	4.9537	0.93523
543.37	4.9556	0.9382
543.59	4.9587	0.94116
543.82	4.9606	0.94412
544.05	4.9625	0.94709
544.27	4.9644	0.95005
544.5	4.9663	0.95301
544.72	4.9695	0.95598
544.95	4.9714	0.95809
545.18	4.9733	0.96021
545.4	4.9765	0.96317
545.63	4.9784	0.96529
545.86	4.9803	0.9674
546.08	4.9835	0.97037
546.31	4.9854	0.97248
546.54	4.9886	0.9746
546.76	4.9917	0.97756
546.99	4.9937	0.97968
547.22	4.9968	0.9818
547.44	4.9987	0.98307
547.67	5.0019	0.98518
547.89	5.0051	0.9873
548.12	5.007	0.98857
548.35	5.0102	0.99068
548.57	5.0133	0.9928
548.8	5.0152	0.99407
549.03	5.0184	0.99619
549.25	5.0203	0.99746
549.48	5.0222	0.99873
549.71	5.0254	1.0008
549.93	5.0273	1.0021
550.16	5.0292	1.0034
550.39	5.0324	1.0047
550.61	5.0343	1.0059
550.84	5.0375	1.0072
551.07	5.0406	1.0085
551.29	5.0425	1.0089
551.52	5.0457	1.0102
551.75	5.0476	1.0106
551.97	5.0495	1.011
552.2	5.0527	1.0123
552.43	5.0546	1.0127
552.66	5.0578	1.014
552.88	5.0597	1.0144
553.11	5.0616	1.0148
553.34	5.0635	1.0152
553.56	5.0654	1.0157
553.79	5.066	1.0161
554.02	5.0679	1.0165
554.24	5.0698	1.0169
554.47	5.0705	1.0174
554.7	5.0724	1.0178
554.92	5.073	1.0182
555.15	5.0749	1.0186
555.38	5.0768	1.019
555.6	5.0775	1.0186
555.83	5.0794	1.019
556.06	5.08	1.0186
556.29	5.0819	1.0182
556.51	5.0825	1.0178
556.74	5.0844	1.0174
556.97	5.0851	1.0169
557.19	5.087	1.0165
557.42	5.0876	1.0161
557.65	5.0883	1.0157
557.88	5.0889	1.0144
558.1	5.0895	1.014
558.33	5.0902	1.0127
558.56	5.0908	1.0123
558.78	5.0902	1.011
559.01	5.0895	1.0097
559.24	5.0889	1.0085
559.47	5.0883	1.0072
559.69	5.0876	1.0068
559.92	5.087	1.0055
560.15	5.0863	1.0042
560.37	5.0857	1.003
560.6	5.0851	1.0017
560.83	5.0844	0.99957
561.06	5.0825	0.9983
561.28	5.0819	0.99703
561.51	5.08	0.99492
561.74	5.0781	0.99365
561.97	5.0762	0.99153
562.19	5.0743	0.99026
562.42	5.0737	0.98899
562.65	5.0717	0.98687
562.87	5.0698	0.9856
563.1	5.0679	0.98349
563.33	5.066	0.98137
563.56	5.0629	0.9801
563.78	5.061	0.97799
564.01	5.0578	0.97587
564.24	5.0546	0.9746
564.47	5.0527	0.97248
564.69	5.0495	0.97121
564.92	5.0463	0.96994
565.15	5.0432	0.96783
565.38	5.04	0.96656
565.6	5.0368	0.96444
565.83	5.0324	0.96232
566.06	5.0292	0.96105
566.29	5.026	0.95894
566.51	5.0216	0.95767
566.74	5.0171	0.9564
566.97	5.014	0.95428
567.2	5.0095	0.95301
567.43	5.0051	0.95174
567.65	5.0006	0.94963
567.88	4.9962	0.94836
568.11	4.9917	0.94624
568.34	4.9873	0.94497
568.56	4.9829	0.9437
568.79	4.9771	0.94158
569.02	4.9714	0.94031
569.25	4.967	0.93904
569.47	4.9613	0.93777
569.7	4.9556	0.9365
569.93	4.9498	0.93439
570.16	4.9441	0.93312
570.39	4.9371	0.93185
570.61	4.9314	0.93058
570.84	4.9257	0.92931
571.07	4.92	0.92889
571.3	4.913	0.92762
571.52	4.906	0.92719
571.75	4.899	0.92592
571.98	4.8921	0.9255
572.21	4.8851	0.92508
572.44	4.8781	0.92465
572.66	4.8711	0.92423
572.89	4.8641	0.92381
573.12	4.8571	0.92338
573.35	4.8502	0.92381
573.58	4.8432	0.92338
573.8	4.8362	0.92381
574.03	4.8279	0.92338
574.26	4.8197	0.92381
574.49	4.8114	0.92423
574.72	4.8032	0.92465
574.94	4.7949	0.92508
575.17	4.7867	0.92635
575.4	4.7784	0.92677
575.63	4.7702	0.92804
575.86	4.7619	0.92846
576.08	4.7524	0.92973
576.31	4.7429	0.931
576.54	4.7333	0.93227
576.77	4.7238	0.93354
577	4.7143	0.93566
577.23	4.7048	0.93777
577.45	4.6965	0.93989
577.68	4.6883	0.94201
577.91	4.6787	0.94412
578.14	4.6705	0.94624
578.37	4.6622	0.94836
578.6	4.654	0.95047
578.82	4.6457	0.95344
579.05	4.6375	0.95555
579.28	4.6292	0.95851
579.51	4.621	0.96148
579.74	4.6127	0.96444
579.96	4.6044	0.96825
580.19	4.5962	0.97206
580.42	4.5879	0.97587
580.65	4.5797	0.97883
580.88	4.5702	0.98264
581.11	4.5606	0.98645
581.34	4.5524	0.99026
581.56	4.5429	0.99492
581.79	4.5333	0.99957
582.02	4.5238	1.0042
582.25	4.5156	1.0089
582.48	4.5073	1.0144
582.71	4.499	1.0199
582.93	4.4908	1.0254
583.16	4.4825	1.0309
583.39	4.4743	1.0364
583.62	4.4673	1.0411
583.85	4.4603	1.0457
584.08	4.4533	1.0512
584.31	4.4463	1.0567
584.53	4.4394	1.0622
584.76	4.4324	1.0677
584.99	4.4267	1.0732
585.22	4.421	1.0787
585.45	4.4152	1.0842
585.68	4.4083	1.0906
585.91	4.4013	1.0969
586.13	4.3956	1.1024
586.36	4.3898	1.1088
586.59	4.3841	1.1151
586.82	4.3784	1.1215
587.05	4.3727	1.1287
587.28	4.367	1.1359
587.51	4.3613	1.1431
587.74	4.3568	1.1503
587.96	4.3524	1.1575
588.19	4.3479	1.1647
588.42	4.3435	1.1718
588.65	4.339	1.179
588.88	4.3359	1.1862
589.11	4.3327	1.1926
589.34	4.3295	1.1998
589.57	4.3263	1.2078
589.79	4.3232	1.215
590.02	4.3213	1.2222
590.25	4.3194	1.2294
590.48	4.3175	1.2366
590.71	4.3156	1.2438
590.94	4.3149	1.251
591.17	4.313	1.2582
591.4	4.3124	1.2654
591.63	4.3117	1.2726
591.85	4.3111	1.2798
592.08	4.3105	1.2878
592.31	4.3098	1.2959
592.54	4.3092	1.3039
592.77	4.3098	1.3111
593	4.3092	1.3183
593.23	4.3098	1.3255
593.46	4.3105	1.3327
593.69	4.3111	1.3399
593.92	4.3117	1.3471
594.15	4.3124	1.3543
594.37	4.313	1.3615
594.6	4.3149	1.3687
594.83	4.3168	1.3759
595.06	4.3187	1.3831
595.29	4.3206	1.3903
595.52	4.3238	1.3966
595.75	4.3257	1.4038
595.98	4.3289	1.4102
596.21	4.3321	1.4165
596.44	4.3365	1.4229
596.67	4.3397	1.4292
596.9	4.3429	1.4356
597.12	4.3473	1.4419
597.35	4.3517	1.4483
597.58	4.3575	1.4546
597.81	4.3619	1.4609
598.04	4.3663	1.4673
598.27	4.3708	1.4728
598.5	4.3765	1.4783
598.73	4.3822	1.4838
598.96	4.3879	1.4893
599.19	4.3949	1.4931
599.42	4.4019	1.4978
599.65	4.4089	1.5024
599.88	4.4159	1.5062
600.11	4.4241	1.51
600.34	4.4324	1.5139
600.56	4.4406	1.5168
600.79	4.4489	1.5198
601.02	4.4571	1.5219
601.25	4.4667	1.524
601.48	4.4762	1.5261
601.71	4.4857	1.5283
601.94	4.4952	1.5304
602.17	4.5048	1.5316
602.4	4.5143	1.5321
602.63	4.5238	1.5333
602.86	4.5333	1.5338
603.09	4.5429	1.5342
603.32	4.5524	1.5346
603.55	4.5619	1.5342
603.78	4.5714	1.5329
604.01	4.5822	1.5316
604.24	4.593	1.5304
604.47	4.6038	1.5291
604.7	4.6146	1.527
604.93	4.6254	1.524
605.16	4.6362	1.5211
605.39	4.647	1.5172
605.62	4.6578	1.5134
605.85	4.6686	1.5105
606.07	4.6794	1.5067
606.3	4.6902	1.5029
606.53	4.701	1.4982
606.76	4.7117	1.4935
606.99	4.7225	1.4889
607.22	4.7333	1.4842
607.45	4.7429	1.4796
607.68	4.7524	1.4741
607.91	4.7619	1.4677
608.14	4.7714	1.4614
608.37	4.781	1.455
608.6	4.7905	1.4487
608.83	4.8	1.4423
609.06	4.8095	1.436
609.29	4.819	1.4288
609.52	4.8273	1.4216
609.75	4.8356	1.4144
609.98	4.8438	1.4072
610.21	4.8521	1.3991
610.44	4.8603	1.3911
610.67	4.8686	1.3831
610.9	4.8768	1.375
611.13	4.8851	1.367
611.36	4.8921	1.3598
611.59	4.899	1.3526
611.82	4.906	1.3445
612.05	4.913	1.3365
612.28	4.92	1.3285
612.51	4.9257	1.3204
612.74	4.9314	1.3124
612.97	4.9384	1.3043
613.2	4.9441	1.2963
613.43	4.9498	1.2874
613.66	4.9556	1.2794
613.89	4.9613	1.2713
614.12	4.9657	1.2633
614.35	4.9702	1.2552
614.58	4.9733	1.2472
614.81	4.9778	1.2391
615.04	4.9822	1.2303
615.27	4.9854	1.2222
615.5	4.9886	1.2142
615.73	4.9917	1.2061
615.96	4.9949	1.1981
616.19	4.9981	1.19
616.42	5	1.182
616.66	5.0032	1.174
616.89	5.0051	1.1668
617.12	5.007	1.1596
617.35	5.0076	1.1524
617.58	5.0095	1.1443
617.81	5.0102	1.1371
618.04	5.0121	1.1291
618.27	5.0127	1.1219
618.5	5.0133	1.1147
618.73	5.014	1.1075
618.96	5.0133	1.1012
619.19	5.0127	1.0948
619.42	5.0121	1.0885
619.65	5.0102	1.0821
619.88	5.0095	1.0758
620.11	5.0076	1.0694
620.34	5.007	1.0631
620.57	5.0051	1.0567
620.8	5.0032	1.0504
621.03	5.0013	1.0449
621.26	4.9994	1.0394
621.49	4.9962	1.0347
621.72	4.9943	1.0292
621.95	4.9911	1.0245
622.19	4.9879	1.0199
622.42	4.9848	1.0152
622.65	4.9816	1.0106
622.88	4.9784	1.0059
623.11	4.9752	1.0021
623.34	4.9708	0.9983
623.57	4.9676	0.99449
623.8	4.9632	0.99068
624.03	4.9587	0.98772
624.26	4.9543	0.98476
624.49	4.9498	0.9818
624.72	4.9454	0.97883
624.95	4.941	0.97587
625.18	4.9352	0.97375
625.41	4.9295	0.97164
625.65	4.9251	0.96952
625.88	4.9206	0.9674
626.11	4.9149	0.96613
626.34	4.9092	0.96486
626.57	4.9048	0.96275
626.8	4.9003	0.96148
627.03	4.8946	0.96105
627.26	4.8889	0.96063
627.49	4.8832	0.96021
627.72	4.8787	0.95978
627.95	4.873	0.96021
628.18	4.8673	0.95978
628.42	4.8616	0.96021
628.65	4.8571	0.95978
628.88	4.8527	0.96021
629.11	4.847	0.96148
629.34	4.8425	0.9619
629.57	4.8381	0.96232
629.8	4.8337	0.96359
630.03	4.8279	0.96486
630.26	4.8222	0.96613
630.49	4.8178	0.96656
630.72	4.8133	0.96783
630.96	4.8089	0.9691
631.19	4.8044	0.97037
631.42	4.8	0.97164
631.65	4.7968	0.97375
631.88	4.7937	0.97587
632.11	4.7892	0.97799
632.34	4.786	0.9801
632.57	4.7829	0.98222
632.8	4.7784	0.98518
633.04	4.7752	0.9873
633.27	4.7721	0.98941
633.5	4.7689	0.99238
633.73	4.767	0.99449
633.96	4.7638	0.99746
634.19	4.7619	1.0004
634.42	4.76	1.0034
634.65	4.7581	1.0063
634.88	4.7562	1.0093
635.12	4.753	1.0123
635.35	4.7511	1.0144
635.58	4.7492	1.0174
635.81	4.7473	1.0203
636.04	4.7454	1.0233
636.27	4.7435	1.0262
636.5	4.7416	1.0292
636.73	4.7397	1.0322
636.97	4.739	1.0351
637.2	4.7371	1.0389
637.43	4.7365	1.0419
637.66	4.7346	1.0449
637.89	4.734	1.0478
638.12	4.7321	1.0516
638.35	4.7314	1.0546
638.59	4.7308	1.0576
638.82	4.7302	1.0614
639.05	4.7295	1.0652
639.28	4.7276	1.069
639.51	4.727	1.072
639.74	4.7263	1.0749
639.97	4.7257	1.0787
640.21	4.7251	1.0825
640.44	4.7244	1.0855
640.67	4.7238	1.0885
640.9	4.7232	1.0923
641.13	4.7225	1.0961
641.36	4.7206	1.0999
641.59	4.72	1.1029
641.83	4.7181	1.1067
642.06	4.7175	1.1105
642.29	4.7156	1.1143
642.52	4.7149	1.1181
642.75	4.7143	1.1219
642.98	4.7137	1.1257
643.22	4.713	1.1295
643.45	4.7111	1.1333
643.68	4.7105	1.1371
643.91	4.7086	1.1418
644.14	4.7079	1.1465
644.37	4.706	1.1511
644.61	4.7054	1.1549
644.84	4.7048	1.1596
645.07	4.7041	1.1642
645.3	4.7035	1.1689
645.53	4.7029	1.1735
645.76	4.7022	1.1782
646	4.7016	1.1829
646.23	4.701	1.1875
646.46	4.7003	1.193
646.69	4.6997	1.1985
646.92	4.7003	1.204
647.16	4.6997	1.2104
647.39	4.7003	1.2159
647.62	4.6997	1.2222
647.85	4.7003	1.2286
648.08	4.6997	1.2358
648.31	4.7003	1.2421
648.55	4.6997	1.2493
648.78	4.7003	1.2565
649.01	4.701	1.2637
649.24	4.7016	1.2717
649.47	4.7022	1.2798
649.71	4.7041	1.2878
649.94	4.7048	1.2959
650.17	4.7067	1.3039
650.4	4.7086	1.312
650.63	4.7117	1.3191
650.87	4.7137	1.328
651.1	4.7168	1.3361
651.33	4.72	1.3441
651.56	4.7244	1.3522
651.79	4.7289	1.3602
652.03	4.7346	1.3683
652.26	4.739	1.3763
652.49	4.7435	1.3843
652.72	4.7492	1.3915
652.95	4.7549	1.3987
653.19	4.7606	1.4059
653.42	4.7676	1.4131
653.65	4.7746	1.4203
653.88	4.7829	1.4275
654.12	4.7911	1.4347
654.35	4.8006	1.4402
654.58	4.8102	1.4457
654.81	4.8197	1.4512
655.04	4.8292	1.4567
655.28	4.84	1.4614
655.51	4.8508	1.466
655.74	4.8629	1.4707
655.97	4.8762	1.4745
656.21	4.8895	1.4783
656.44	4.9029	1.4813
656.67	4.9175	1.4842
656.9	4.9321	1.4863
657.13	4.9479	1.4876
657.37	4.9625	1.4889
657.6	4.9784	1.4893
657.83	4.9943	1.4897
658.06	5.0114	1.4893
658.3	5.0286	1.4889
658.53	5.047	1.4876
658.76	5.0641	1.4863
658.99	5.0825	1.4842
659.23	5.101	1.4813
659.46	5.1194	1.4783
659.69	5.1378	1.4745
659.92	5.1575	1.4698
660.16	5.1759	1.4643
660.39	5.1956	1.4588
660.62	5.214	1.4533
660.85	5.2337	1.447
661.09	5.2521	1.4398
661.32	5.2705	1.4326
661.55	5.2889	1.4254
661.78	5.3073	1.4165
662.02	5.3244	1.4076
662.25	5.3416	1.3987
662.48	5.3587	1.389
662.71	5.3759	1.3793
662.95	5.3917	1.3687
663.18	5.4076	1.3581
663.41	5.4222	1.3484
663.64	5.4368	1.3378
663.88	5.4502	1.3272
664.11	5.4635	1.3158
664.34	5.4756	1.3043
664.57	5.4876	1.2929
664.81	5.4984	1.2815
665.04	5.5079	1.2692
665.27	5.5175	1.2578
665.51	5.5257	1.2455
665.74	5.534	1.2332
665.97	5.541	1.2209
666.2	5.5467	1.2087
666.44	5.5524	1.1964
666.67	5.5568	1.1841
666.9	5.5613	1.171
667.14	5.5644	1.1587
667.37	5.5663	1.1456
667.6	5.5683	1.1333
667.83	5.5689	1.1202
668.07	5.5683	1.1079
668.3	5.5689	1.0948
668.53	5.5683	1.0825
668.77	5.5663	1.0703
669	5.5657	1.058
669.23	5.5638	1.0457
669.46	5.5606	1.0334
669.7	5.5575	1.0212
669.93	5.5543	1.0089
670.16	5.5511	0.99661
670.4	5.5467	0.98518
670.63	5.5422	0.97291
670.86	5.5378	0.96148
671.09	5.5321	0.95005
671.33	5.5276	0.93862
671.56	5.5232	0.92719
671.79	5.5175	0.91661
672.03	5.5117	0.90603
672.26	5.506	0.8946
672.49	5.499	0.88402
672.73	5.4921	0.87344
672.96	5.4863	0.86285
673.19	5.4806	0.85227
673.43	5.4737	0.84254
673.66	5.4667	0.8328
673.89	5.4597	0.82307
674.12	5.4527	0.81333
674.36	5.447	0.80359
674.59	5.4413	0.79386
674.82	5.4343	0.78497
675.06	5.4273	0.77608
675.29	5.4203	0.76719
675.52	5.4133	0.7583
675.76	5.4076	0.74941
675.99	5.4019	0.74053
676.22	5.3962	0.73164
676.46	5.3892	0.72359
676.69	5.3822	0.71555
676.92	5.3752	0.70751
677.16	5.3695	0.69947
677.39	5.3638	0.69142
677.62	5.3581	0.68423
677.86	5.3511	0.67703
678.09	5.3441	0.66984
678.32	5.3384	0.66264
678.56	5.3327	0.65545
678.79	5.327	0.64825
679.02	5.3213	0.64105
679.26	5.3156	0.63471
679.49	5.3098	0.62836
679.72	5.3041	0.62201
679.96	5.2984	0.61566
680.19	5.294	0.60931
680.42	5.2895	0.60296
680.66	5.2838	0.59661
680.89	5.2781	0.59026
681.12	5.2737	0.58391
681.36	5.2692	0.57841
681.59	5.2648	0.57291
681.82	5.259	0.5674
682.06	5.2546	0.5619
682.29	5.2502	0.5564
682.53	5.2457	0.5509
682.76	5.24	0.54624
682.99	5.2356	0.54158
683.23	5.2311	0.53693
683.46	5.2267	0.53227
683.69	5.2222	0.52762
683.93	5.2178	0.52381
684.16	5.2133	0.52
684.39	5.2089	0.51619
684.63	5.2044	0.51238
684.86	5.2	0.50857
685.09	5.1956	0.50476
685.33	5.1924	0.50095
685.56	5.1879	0.49799
685.8	5.1835	0.49502
686.03	5.179	0.49206
686.26	5.1759	0.48825
686.5	5.1714	0.48529
686.73	5.167	0.48232
686.96	5.1638	0.47936
687.2	5.1594	0.47725
687.43	5.1549	0.47428
687.67	5.1505	0.47217
687.9	5.1473	0.47005
688.13	5.1429	0.46793
688.37	5.1384	0.46582
688.6	5.1352	0.4637
688.84	5.1308	0.46243
689.07	5.1276	0.46031
689.3	5.1244	0.4582
689.54	5.1213	0.45693
689.77	5.1181	0.45566
690	5.1149	0.45354
690.24	5.1117	0.45227
690.47	5.1086	0.451
690.71	5.1054	0.44973
690.94	5.1035	0.44846
691.17	5.1016	0.44635
691.41	5.0984	0.44508
691.64	5.0965	0.44381
691.88	5.0946	0.44254
692.11	5.0914	0.44127
692.34	5.0895	0.44
692.58	5.0863	0.43873
692.81	5.0832	0.4383
693.05	5.0813	0.43703
693.28	5.0781	0.43661
693.51	5.0762	0.43619
693.75	5.0743	0.43492
693.98	5.0711	0.43449
694.22	5.0692	0.43322
694.45	5.066	0.4328
694.68	5.0641	0.43238
694.92	5.0622	0.43195
695.15	5.0603	0.43153
695.39	5.0584	0.43111
695.62	5.0578	0.43068
695.86	5.0559	0.43026
696.09	5.054	0.42984
696.32	5.0533	0.42941
696.56	5.0514	0.42899
696.79	5.0508	0.42857
697.03	5.0489	0.42814
697.26	5.0483	0.42772
697.49	5.0476	0.4273
697.73	5.0457	0.42687
697.96	5.0451	0.42645
698.2	5.0432	0.42603
698.43	5.0425	0.4256
698.67	5.0406	0.42518
698.9	5.04	0.42391
699.14	5.0381	0.42349
699.37	5.0375	0.42222
699.6	5.0368	0.4218
699.84	5.0349	0.42053
700.07	5.0343	0.4201
700.31	5.0324	0.41883
700.54	5.0317	0.41756
700.78	5.0298	0.41714
701.01	5.0292	0.41587
701.24	5.0286	0.41545
701.48	5.0279	0.41418
701.71	5.0273	0.41375
701.95	5.0267	0.41248
702.18	5.026	0.41206
702.42	5.0241	0.41164
702.65	5.0235	0.41035
702.89	5.0216	0.40992
703.12	5.021	0.4086
703.35	5.0203	0.40814
703.59	5.0197	0.40677
703.82	5.019	0.40626
704.06	5.0184	0.40563
704.29	5.0178	0.40501
704.53	5.0171	0.40417
704.76	5.0165	0.40334
705	5.0146	0.40335
705.23	5.014	0.40251
705.47	5.0121	0.40252
705.7	5.0114	0.40168
705.94	5.0108	0.40169
706.17	5.0102	0.40169
706.4	5.0095	0.4017
706.64	5.0089	0.40172
706.87	5.0083	0.40174
707.11	5.0076	0.40177
707.34	5.007	0.4018
707.58	5.0063	0.40187
707.81	5.0057	0.40193
708.05	5.0051	0.40206
708.28	5.0044	0.40219
708.52	5.0051	0.40119
708.75	5.0044	0.40088
708.99	5.0051	0.40056
709.22	5.0044	0.39994
709.46	5.0051	0.3991
709.69	5.0044	0.39912
709.93	5.0051	0.39789
710.16	5.0044	0.39709
710.4	5.0051	0.39587
710.63	5.0044	0.39512
710.86	5.0051	0.39394
711.1	5.0044	0.39325
711.33	5.0051	0.39215
711.57	5.0044	0.39161
711.8	5.0051	0.39065
712.04	5.0044	0.39039
712.27	5.0051	0.38988
712.51	5.0044	0.38894
712.74	5.0051	0.38874
712.98	5.0044	0.38833
713.21	5.0051	0.38749
713.45	5.0044	0.38747
713.68	5.0051	0.38745
713.92	5.0044	0.38739
714.15	5.0051	0.38728
714.39	5.0044	0.38705
714.62	5.0051	0.38659
714.86	5.0044	0.38564
715.09	5.0051	0.38541
715.33	5.0044	0.38494
715.56	5.0051	0.38398
715.8	5.0044	0.38371
716.03	5.0051	0.38318
716.27	5.0044	0.38209
716.5	5.0051	0.38155
716.74	5.0044	0.38045
716.98	5.0051	0.37989
717.21	5.0044	0.37876
717.45	5.0051	0.37814
717.68	5.0044	0.37686
717.92	5.0051	0.37593
718.15	5.0044	0.37572
718.39	5.0051	0.37527
718.62	5.0044	0.37434
718.86	5.0051	0.37412
719.09	5.0044	0.37367
719.33	5.0051	0.37273
719.56	5.0044	0.37248
719.8	5.0051	0.37199
720.03	5.0044	0.37094
720.27	5.0051	0.37045
720.5	5.0044	0.36943
720.74	5.0051	0.369
720.97	5.0044	0.36809
721.21	5.0051	0.36788
721.44	5.0044	0.36745
721.68	5.0051	0.36654
721.92	5.0044	0.36634
722.15	5.0051	0.36591
722.39	5.0044	0.365
722.62	5.0051	0.36481
722.86	5.0044	0.3644
723.09	5.0051	0.36353
723.33	5.0044	0.36342
723.56	5.0051	0.36318
723.8	5.0044	0.36268
724.03	5.0051	0.36163
724.27	5.0044	0.36111
724.51	5.0051	0.36001
724.74	5.0044	0.35938
724.98	5.0051	0.35805
725.21	5.0057	0.35691
725.45	5.0063	0.3562
725.68	5.007	0.3547
725.92	5.0076	0.35321
726.15	5.0083	0.35173
726.39	5.0089	0.35026
726.62	5.0095	0.34881
726.86	5.0102	0.34743
727.1	5.0108	0.34617
727.33	5.0114	0.34517
727.57	5.0121	0.34471
727.8	5.0127	0.34373
728.04	5.0133	0.34331
728.27	5.014	0.34241
728.51	5.0146	0.34214
728.75	5.014	0.34157
728.98	5.0146	0.34033
729.22	5.0152	0.33934
729.45	5.0159	0.33888
729.69	5.0165	0.33788
729.92	5.0171	0.33738
730.16	5.0178	0.33631
730.4	5.0184	0.33566
730.63	5.019	0.33425
730.87	5.0197	0.33284
731.1	5.0203	0.33143
731.34	5.021	0.33003
731.57	5.0216	0.32864
731.81	5.0222	0.32727
732.05	5.0229	0.32595
732.28	5.0235	0.32475
732.52	5.0241	0.32379
732.75	5.0235	0.32336
732.99	5.0241	0.3224
733.23	5.0235	0.32195
733.46	5.0241	0.32094
733.7	5.0235	0.32041
733.93	5.0241	0.31921
734.17	5.0235	0.31822
734.4	5.0241	0.31769
734.64	5.0235	0.31649
734.88	5.0241	0.31547
735.11	5.0235	0.31488
735.35	5.0241	0.31355
735.58	5.0235	0.31221
735.82	5.0241	0.31088
736.06	5.0235	0.30954
736.29	5.0241	0.30821
736.53	5.0235	0.30686
736.76	5.0241	0.3055
737	5.0235	0.30411
737.24	5.0241	0.30263
737.47	5.0248	0.30092
737.71	5.0254	0.30041
737.94	5.026	0.29923
738.18	5.0267	0.29819
738.42	5.0273	0.29748
738.65	5.0279	0.29583
738.89	5.0286	0.29542
739.13	5.0292	0.29445
739.36	5.0298	0.29391
739.6	5.0317	0.29266
739.83	5.0324	0.29141
740.07	5.0343	0.29017
740.31	5.0349	0.28898
740.54	5.0368	0.28786
740.78	5.0375	0.28695
741.01	5.0381	0.28649
741.25	5.0387	0.28539
741.49	5.0394	0.28451
741.72	5.0413	0.28412
741.96	5.0419	0.28319
742.2	5.0438	0.28269
742.43	5.0444	0.28147
742.67	5.0463	0.28027
742.9	5.047	0.2791
743.14	5.0476	0.27802
743.38	5.0483	0.2771
743.61	5.0489	0.27661
743.85	5.0508	0.27541
744.09	5.0514	0.27422
744.32	5.0533	0.27302
744.56	5.054	0.27182
744.8	5.0559	0.27061
745.03	5.0565	0.26937
745.27	5.0571	0.26807
745.5	5.0578	0.26661
745.74	5.0584	0.26473
745.98	5.059	0.26356
746.21	5.0597	0.26239
746.45	5.0603	0.2612
746.69	5.061	0.25995
746.92	5.0629	0.25853
747.16	5.0635	0.25668
747.4	5.0641	0.2555
747.63	5.0648	0.25425
747.87	5.0654	0.2528
748.11	5.066	0.25086
748.34	5.0667	0.24937
748.58	5.0673	0.2473
748.82	5.0679	0.24546
749.05	5.0686	0.24425
749.29	5.0692	0.24287
749.52	5.0698	0.24101
749.76	5.0705	0.23967
750	5.0711	0.23791
750.23	5.0717	0.23684
750.47	5.0711	0.23577
750.71	5.0717	0.23471
750.94	5.0711	0.23368
751.18	5.0717	0.23272
751.42	5.0711	0.23195
751.65	5.0717	0.23169
751.89	5.0724	0.23098
752.13	5.073	0.23085
752.36	5.0737	0.2305
752.6	5.0743	0.22954
752.84	5.0749	0.22874
753.07	5.0756	0.22837
753.31	5.0762	0.22735
753.55	5.0768	0.22632
753.78	5.0775	0.2253
754.02	5.0781	0.22427
754.26	5.0787	0.22324
754.5	5.0794	0.22221
754.73	5.08	0.22115
754.97	5.0806	0.22003
755.21	5.0813	0.21875
755.44	5.0819	0.21697
755.68	5.0825	0.21565
755.92	5.0832	0.21375
756.15	5.0838	0.21203
756.39	5.0844	0.21079
756.63	5.0851	0.20906
756.86	5.0857	0.20778
757.1	5.0863	0.20587
757.34	5.087	0.20396
757.57	5.0876	0.20205
757.81	5.0883	0.20011
758.05	5.0902	0.19813
758.29	5.0908	0.19595
758.52	5.0927	0.19319
758.76	5.0933	0.19048
759	5.094	0.18783
759.23	5.0946	0.18531
759.47	5.0952	0.18329
759.71	5.0959	0.18081
759.94	5.0965	0.17877
760.18	5.0984	0.17621
760.42	5.099	0.17385
760.66	5.101	0.17211
760.89	5.1016	0.17038
761.13	5.1035	0.16865
761.37	5.1054	0.16695
761.6	5.106	0.16531
761.84	5.1079	0.16387
762.08	5.1086	0.16308
762.32	5.1105	0.16242
762.55	5.1111	0.16219
762.79	5.113	0.16138
763.03	5.1137	0.16069
763.26	5.1156	0.16034
763.5	5.1175	0.15911
763.74	5.1181	0.15894
763.98	5.12	0.15834
764.21	5.1206	0.15832
764.45	5.1225	0.15826
764.69	5.1232	0.15804
764.92	5.1238	0.15727
765.16	5.1257	0.15663
765.4	5.1263	0.15644
765.64	5.1283	0.15579
765.87	5.1289	0.15556
766.11	5.1308	0.15475
766.35	5.1314	0.15395
766.59	5.1333	0.15319
766.82	5.1352	0.15254
767.06	5.1359	0.15231
767.3	5.1378	0.15146
767.53	5.1384	0.15047
767.77	5.1403	0.1489
768.01	5.141	0.14737
768.25	5.1416	0.146
768.48	5.1422	0.14518
768.72	5.1416	0.14423
768.96	5.1422	0.14282
769.2	5.1416	0.14184
769.43	5.1422	0.14029
769.67	5.1416	0.13876
769.91	5.1422	0.13721
770.15	5.1416	0.13555
770.38	5.141	0.13345
770.62	5.1403	0.13181
770.86	5.1397	0.12978
771.1	5.1403	0.12829
771.33	5.1397	0.1267
771.57	5.1403	0.12467
771.81	5.141	0.12306
772.05	5.1416	0.12091
772.28	5.1422	0.11876
772.52	5.1429	0.1166
772.76	5.1435	0.11437
773	5.1441	0.11176
773.23	5.146	0.10973
773.47	5.1467	0.10781
773.71	5.1486	0.10641
773.95	5.1492	0.10492
774.18	5.1511	0.10294
774.42	5.153	0.10107
774.66	5.1537	0.099731
774.9	5.1556	0.098394
775.13	5.1562	0.096991
775.37	5.1581	0.095163
775.61	5.1587	0.093855
775.85	5.1606	0.092476
776.09	5.1625	0.090683
776.32	5.1644	0.089421
776.56	5.1663	0.088187
776.8	5.167	0.087005
777.04	5.1689	0.086167
777.27	5.1708	0.084405
777.51	5.1727	0.08318
777.75	5.1746	0.082035
777.99	5.1752	0.081304
778.23	5.1771	0.079991
778.46	5.1778	0.078281
778.7	5.1797	0.077084
778.94	5.1803	0.075878
779.18	5.1822	0.074617
779.41	5.1841	0.072947
779.65	5.1848	0.071713
779.89	5.1867	0.070046
780.13	5.1873	0.068812
780.37	5.1892	0.067033
780.6	5.1898	0.064825
780.84	5.1905	0.063069
781.08	5.1911	0.060845
781.32	5.1917	0.058622
781.56	5.1924	0.056413
781.79	5.193	0.054282
782.03	5.1937	0.052649
782.27	5.1943	0.051058
782.51	5.1949	0.0499
782.74	5.1956	0.048343
782.98	5.1949	0.047271
783.22	5.1956	0.046196
783.46	5.1962	0.045084
783.7	5.1968	0.043574
783.93	5.1975	0.042537
784.17	5.1994	0.04147
784.41	5.2	0.040003
784.65	5.2019	0.039004
784.89	5.2025	0.038005
785.13	5.2044	0.037006
785.36	5.2051	0.036006
785.6	5.207	0.035003
785.84	5.2089	0.033959
786.08	5.2108	0.032492
786.32	5.2127	0.031493
786.55	5.2146	0.030494
786.79	5.2165	0.0295
787.03	5.2171	0.028547
787.27	5.219	0.028026
787.51	5.221	0.027064
787.74	5.2216	0.026136
787.98	5.2235	0.02564
788.22	5.2241	0.024706
788.46	5.226	0.023773
788.7	5.2267	0.022839
788.94	5.2286	0.021891
789.17	5.2305	0.020513
789.41	5.2311	0.019128
789.65	5.233	0.01732
789.89	5.2337	0.015512
790.13	5.2356	0.013705
790.37	5.2375	0.011897
790.6	5.2394	0.010091
790.84	5.2413	0.008313
791.08	5.2419	0.0069797
791.32	5.2438	0.0056475
791.56	5.2444	0.004336
791.8	5.2463	0.0034617
792.03	5.247	0.0025874
792.27	5.2489	0.0017135
792.51	5.2495	0.00085328
792.75	5.2502	0.00042328
792.99	5.2508	0
793.23	5.2514	0
793.46	5.2521	0
793.7	5.2527	0
793.94	5.2521	0
794.18	5.2527	0
794.42	5.2521	0
794.66	5.2527	0
794.89	5.2521	0
795.13	5.2527	0
795.37	5.2521	0
795.61	5.2527	0
795.85	5.2521	0
796.09	5.2527	0
796.33	5.2533	0
796.56	5.254	0
796.8	5.2546	0
797.04	5.2552	0
797.28	5.2559	0
797.52	5.2565	0
797.76	5.2571	0
798	5.2578	0
798.23	5.2584	0
798.47	5.259	0
798.71	5.2597	0
798.95	5.2616	0
799.19	5.2622	0
799.43	5.2641	0
799.67	5.2648	0
799.9	5.2654	0
800.14	5.266	0
800.38	5.2667	0
800.62	5.2673	0
800.86	5.2679	0
801.1	5.2686	0
801.34	5.2692	0
801.58	5.2711	0
801.81	5.2717	0
802.05	5.2724	0
802.29	5.273	0
802.53	5.2737	0
802.77	5.2743	0
803.01	5.2749	0
803.25	5.2756	0
803.49	5.2762	0
803.72	5.2781	0
803.96	5.2787	0
804.2	5.2806	0
804.44	5.2813	0
804.68	5.2832	0
804.92	5.2838	0
805.16	5.2844	0
805.4	5.2851	0
805.64	5.287	0
805.87	5.2876	0
806.11	5.287	0
806.35	5.2876	0
806.59	5.2883	0
806.83	5.2889	0
807.07	5.2883	0
807.31	5.2876	0
807.55	5.287	0
807.79	5.2863	0
808.03	5.2857	0
808.26	5.2851	0
808.5	5.2857	0
808.74	5.2851	0
808.98	5.2844	0
809.22	5.2838	0
809.46	5.2844	0
809.7	5.2851	0
809.94	5.2844	0
810.18	5.2838	0
810.42	5.2832	0
810.65	5.2838	0
810.89	5.2832	0
811.13	5.2838	0
811.37	5.2832	0
811.61	5.2825	0
811.85	5.2819	0
812.09	5.28	0
812.33	5.2794	0
812.57	5.28	0
812.81	5.2794	0
813.05	5.2787	0
813.29	5.2781	0
813.52	5.2787	0
813.76	5.2781	0
814	5.2787	0
814.24	5.2781	0
814.48	5.2787	0
814.72	5.2781	0
814.96	5.2787	0
815.2	5.2794	0
815.44	5.28	0
815.68	5.2806	0
815.92	5.2813	0
816.16	5.2806	0
816.4	5.2813	0
816.64	5.2806	0
816.87	5.28	0
817.11	5.2794	0
817.35	5.2787	0
817.59	5.2768	0
817.83	5.2762	0
818.07	5.2743	0
818.31	5.2737	0
818.55	5.273	0
818.79	5.2724	0
819.03	5.2717	0
819.27	5.2711	0
819.51	5.2705	0
819.75	5.2698	0
819.99	5.2679	0
820.23	5.2673	0
820.47	5.2667	0
820.71	5.266	0
820.94	5.2654	0
821.18	5.266	0
821.42	5.2654	0
821.66	5.266	0
821.9	5.2654	0
822.14	5.2648	0
822.38	5.2654	0
822.62	5.2648	0
822.86	5.2654	0
823.1	5.266	0
823.34	5.2679	0
823.58	5.2698	0
823.82	5.2717	0
824.06	5.2749	0
824.3	5.2768	0
824.54	5.2787	0
824.78	5.2806	0
825.02	5.2825	0
825.26	5.2844	0
825.5	5.2863	0
825.74	5.2883	0
825.98	5.2889	0
826.22	5.2908	0
826.46	5.2914	0
826.7	5.2921	0
826.94	5.2914	0
827.17	5.2921	0
827.41	5.2914	0
827.65	5.2908	0
827.89	5.2902	0
828.13	5.2908	0
828.37	5.2902	0
828.61	5.2908	0
828.85	5.2902	0
829.09	5.2908	0
829.33	5.2902	0
829.57	5.2908	0
829.81	5.2902	0
830.05	5.2908	0
830.29	5.2902	0
830.53	5.2908	0
830.77	5.2902	0
831.01	5.2895	0
831.25	5.2876	0
831.49	5.287	0
831.73	5.2863	0
831.97	5.2883	0
832.21	5.2889	0
832.45	5.2908	0
832.69	5.2927	0
832.93	5.2946	0
833.17	5.2952	0
833.41	5.2971	0
833.65	5.2978	0
833.89	5.2997	0
834.13	5.3016	0
834.37	5.3035	0
834.61	5.3067	0
834.85	5.3111	0
835.09	5.3156	0
835.33	5.3187	0
835.57	5.3206	0
835.81	5.3238	0
836.05	5.327	0
836.29	5.3289	0
836.53	5.3308	0
836.77	5.334	0
837.01	5.3371	0
837.25	5.3403	0
837.49	5.3435	0
837.73	5.3467	0
837.97	5.3498	0
838.21	5.3517	0
838.45	5.3537	0
838.69	5.3556	0
838.93	5.3575	0
839.17	5.3581	0
839.41	5.3575	0
839.65	5.3568	0
839.89	5.3562	0
840.13	5.3568	0
840.37	5.3562	0
840.62	5.3556	0
840.86	5.3562	0
841.1	5.3556	0
841.34	5.3537	0
841.58	5.3517	0
841.82	5.3511	0
842.06	5.3505	0
842.3	5.3486	0
842.54	5.3479	0
842.78	5.3473	0
843.02	5.3479	0
843.26	5.3473	0
843.5	5.3479	0
843.74	5.3473	0
843.98	5.3479	0
844.22	5.3473	0
844.46	5.3454	0
844.7	5.3435	0
844.94	5.3403	0
845.18	5.3384	0
845.42	5.3365	0
845.66	5.3346	0
845.9	5.3327	0
846.14	5.3295	0
846.38	5.3263	0
846.62	5.3219	0
846.86	5.3187	0
847.11	5.3143	0
847.35	5.3098	0
847.59	5.3067	0
847.83	5.3035	0
848.07	5.3016	0
848.31	5.2997	0
848.55	5.299	0
848.79	5.2971	0
849.03	5.2952	0
849.27	5.2908	0
849.51	5.2876	0
849.75	5.2844	0
849.99	5.2825	0
850.23	5.2794	0
850.47	5.2762	0
850.71	5.273	0
850.95	5.2711	0
851.2	5.2667	0
851.44	5.2622	0
851.68	5.259	0
851.92	5.2559	0
852.16	5.254	0
852.4	5.2521	0
852.64	5.2489	0
852.88	5.2483	0
853.12	5.2489	0
853.36	5.247	0
853.6	5.2451	0
853.84	5.2457	0
854.08	5.2451	0
854.32	5.2457	0
854.57	5.2425	0
854.81	5.2419	0
855.05	5.2463	0
855.29	5.2737	0.010582
855.53	5.2769	0.01221
855.77	5.2831	0.01443
856.01	5.2878	0.017637
856.25	5.3034	0.022676
856.49	5.3276	0.031746
856.73	5.3968	0.05291
856.97	5.6667	0.15873

