#wavelength [nm]	dial1	dial2	dial3	dial4
341	-4.32E+01	5.65E+00	4.16E+01	-2.76E+01
341.5	6.91E+01	1.12E+01	-1.32E+01	-4.70E+01
342	7.87E+00	3.31E+01	2.65E+01	3.13E+01
342.5	-1.39E+02	-1.60E+01	5.09E+01	2.82E+01
343	-9.95E+01	4.40E+01	-4.80E+00	2.63E+01
343.5	-2.04E+00	-3.51E+00	2.85E+01	5.62E+01
344	-5.27E+01	5.75E+01	-4.26E+01	-4.66E+01
344.5	-7.86E+01	7.48E+01	3.72E+01	6.14E+00
345	1.14E+01	-1.37E+00	5.40E+01	6.42E+01
345.5	-4.27E+01	-6.83E+01	-5.82E+01	8.26E+01
346	-3.54E+01	-1.20E+02	1.85E+01	4.48E+01
346.5	-5.19E+01	-1.38E+02	3.95E+01	-1.63E+01
347	-6.47E+00	-2.51E+01	1.50E+01	-7.45E+01
347.5	2.58E+01	1.85E+00	-4.66E+01	-1.03E+02
348	2.90E+01	2.16E+01	-1.23E+01	-2.90E+01
348.5	1.95E+01	2.93E+01	9.20E+00	1.08E+01
349	1.26E+01	3.28E+01	4.44E+01	2.87E+01
349.5	8.72E+00	3.56E+01	5.69E+01	3.95E+01
350	2.19E+01	3.16E+01	5.59E+01	3.52E+01
350.5	2.33E+01	2.57E+01	5.94E+01	4.36E+01
351	1.08E+01	1.07E+01	3.78E+01	4.35E+01
351.5	-3.68E+00	-1.15E+01	3.66E+01	1.96E+01
352	-1.19E+00	-1.77E+01	4.07E+01	5.67E+00
352.5	-8.98E+00	5.68E-02	4.59E+01	-1.37E+01
353	-1.34E+01	7.11E-01	3.29E+01	-1.85E+01
353.5	-6.06E+00	6.82E+00	2.49E+01	-3.37E+01
354	-3.33E+01	6.71E+00	1.18E+01	-4.70E+01
354.5	-1.77E+01	1.29E+01	3.36E+00	-3.86E+01
355	4.69E+00	2.91E+01	1.31E+01	-2.32E+01
355.5	2.40E-01	2.22E+01	9.48E+00	-1.56E+01
356	-1.31E+01	-8.98E+00	-9.49E+00	-9.49E+00
356.5	-3.20E+01	-4.83E+01	-2.31E+01	-3.61E+00
357	-6.67E+01	-6.75E+01	-4.28E+01	-7.27E+00
357.5	-4.90E+01	-6.10E+01	-3.59E+01	-4.98E+00
358	-3.13E+01	-9.38E+00	-1.55E+01	9.45E+00
358.5	-2.35E+00	8.42E+00	-7.89E+00	1.54E+01
359	3.61E+01	3.01E+01	-5.98E+00	4.68E+01
359.5	3.64E+01	4.21E+01	1.40E+00	3.94E+01
360	3.22E+01	4.54E+01	-1.15E+01	3.94E+01
360.5	2.02E+01	4.31E+01	-1.21E+01	4.75E+01
361	1.02E+01	2.67E+01	-9.25E+00	4.97E+01
361.5	1.56E+01	1.41E+01	-1.52E+01	3.94E+01
362	2.87E+01	-2.60E-01	-1.50E+01	1.37E+01
362.5	4.30E+01	1.96E+01	-6.38E+00	-5.02E+00
363	3.14E+01	1.36E+01	-2.89E+00	-8.30E+00
363.5	2.51E+01	9.68E-03	5.35E+00	-5.91E-01
364	2.34E+01	5.87E+00	1.67E+01	4.03E-01
364.5	2.40E+01	7.63E+00	1.30E+01	3.02E+01
365	1.96E+01	1.37E+01	2.37E-01	2.71E+01
365.5	5.89E+00	1.85E+01	1.08E+01	4.30E+01
366	-1.06E+01	-1.07E+01	3.19E+01	5.58E+01
366.5	-3.09E+01	-1.96E+01	6.81E+01	5.00E+01
367	-5.34E+01	-9.80E+00	6.33E+01	5.71E+01
367.5	-4.67E+01	1.08E+01	3.45E+01	5.25E+01
368	-3.56E+01	2.77E+01	-3.04E-01	5.61E+01
368.5	-1.17E+01	1.37E+01	-1.07E+01	4.98E+01
369	4.29E+00	8.76E+00	3.48E+00	6.07E+01
369.5	7.24E+00	7.11E+00	1.31E+01	6.78E+01
370	1.10E+01	-1.24E+00	9.95E+00	8.65E+01
370.5	1.87E+01	8.23E+00	1.48E+01	8.73E+01
371	3.13E+00	-8.40E+00	1.52E+01	7.01E+01
371.5	2.87E+00	-7.76E+00	2.08E+01	6.11E+01
372	3.75E+00	6.81E-01	3.41E+01	6.95E+01
372.5	-3.74E+00	3.36E+00	4.14E+01	8.50E+01
373	7.31E+00	5.67E+00	5.08E+01	1.12E+02
373.5	1.36E+01	-2.63E+01	3.29E+01	1.09E+02
374	4.06E+00	-3.58E+01	1.56E+01	1.12E+02
374.5	6.31E+00	-3.80E+01	-6.49E+00	1.32E+02
375	-6.84E+00	-3.28E+01	2.05E+01	1.44E+02
375.5	-9.34E+00	-1.91E+01	4.60E+01	1.60E+02
376	5.95E+00	-4.72E+00	1.01E+02	1.70E+02
376.5	-3.14E+00	9.07E-01	1.07E+02	1.64E+02
377	-2.70E+00	2.30E+01	1.26E+02	1.60E+02
377.5	-5.94E+00	3.77E+01	1.00E+02	1.76E+02
378	-2.08E+00	4.74E+01	8.40E+01	1.87E+02
378.5	2.26E+01	5.80E+01	9.97E+01	2.25E+02
379	4.10E+01	6.35E+01	1.18E+02	2.36E+02
379.5	4.43E+01	6.05E+01	1.72E+02	2.57E+02
380	4.19E+01	4.84E+01	1.98E+02	2.80E+02
380.5	3.59E+01	4.45E+01	2.27E+02	3.09E+02
381	2.99E+01	2.13E+01	2.06E+02	3.37E+02
381.5	1.98E+01	2.78E+01	1.68E+02	3.18E+02
382	2.59E+01	2.30E+01	1.50E+02	3.22E+02
382.5	2.03E+01	3.08E+01	1.38E+02	3.04E+02
383	2.16E+01	6.27E+01	1.51E+02	3.11E+02
383.5	1.55E+01	8.27E+01	1.59E+02	3.31E+02
384	1.80E+01	1.01E+02	1.48E+02	3.56E+02
384.5	2.29E+01	1.07E+02	1.50E+02	4.00E+02
385	3.36E+01	9.83E+01	1.58E+02	4.17E+02
385.5	2.64E+01	9.66E+01	2.15E+02	4.47E+02
386	1.71E+01	8.05E+01	2.49E+02	4.73E+02
386.5	2.88E+01	6.07E+01	2.65E+02	5.06E+02
387	2.66E+01	7.80E+01	2.49E+02	5.46E+02
387.5	4.83E+01	1.01E+02	2.29E+02	5.84E+02
388	7.92E+01	1.27E+02	2.40E+02	6.22E+02
388.5	1.10E+02	1.35E+02	2.55E+02	6.41E+02
389	1.25E+02	1.05E+02	2.75E+02	6.55E+02
389.5	1.23E+02	1.22E+02	3.04E+02	6.62E+02
390	1.04E+02	1.58E+02	3.44E+02	6.86E+02
390.5	9.24E+01	1.84E+02	3.47E+02	7.26E+02
391	9.01E+01	1.93E+02	3.55E+02	7.82E+02
391.5	6.89E+01	1.71E+02	3.41E+02	8.10E+02
392	4.33E+01	1.54E+02	3.31E+02	8.27E+02
392.5	5.01E+01	1.73E+02	3.68E+02	8.48E+02
393	5.10E+01	1.83E+02	3.79E+02	8.64E+02
393.5	4.69E+01	1.97E+02	4.01E+02	8.98E+02
394	5.30E+01	1.83E+02	3.94E+02	9.28E+02
394.5	4.62E+01	1.75E+02	3.81E+02	9.72E+02
395	4.89E+01	1.74E+02	3.77E+02	1.00E+03
395.5	5.75E+01	1.81E+02	3.95E+02	1.02E+03
396	3.91E+01	2.07E+02	4.26E+02	1.04E+03
396.5	3.60E+01	2.17E+02	4.55E+02	1.06E+03
397	4.08E+01	2.15E+02	4.88E+02	1.11E+03
397.5	4.97E+01	2.12E+02	4.92E+02	1.17E+03
398	5.20E+01	2.32E+02	4.88E+02	1.19E+03
398.5	7.35E+01	2.33E+02	4.92E+02	1.21E+03
399	8.02E+01	2.40E+02	4.95E+02	1.21E+03
399.5	9.75E+01	2.23E+02	5.22E+02	1.24E+03
400	9.14E+01	2.20E+02	5.26E+02	1.27E+03
400.5	9.20E+01	2.30E+02	5.34E+02	1.32E+03
401	9.71E+01	2.47E+02	5.49E+02	1.36E+03
401.5	1.12E+02	2.71E+02	5.64E+02	1.38E+03
402	1.16E+02	2.54E+02	5.82E+02	1.42E+03
402.5	1.26E+02	2.40E+02	6.02E+02	1.44E+03
403	1.19E+02	2.70E+02	6.25E+02	1.47E+03
403.5	1.15E+02	2.92E+02	6.67E+02	1.50E+03
404	1.01E+02	3.18E+02	6.68E+02	1.53E+03
404.5	1.16E+02	3.36E+02	6.86E+02	1.58E+03
405	1.06E+02	3.42E+02	7.05E+02	1.63E+03
405.5	1.09E+02	3.30E+02	7.15E+02	1.70E+03
406	1.04E+02	3.33E+02	7.52E+02	1.79E+03
406.5	1.13E+02	3.62E+02	7.67E+02	1.85E+03
407	1.40E+02	3.64E+02	7.92E+02	1.92E+03
407.5	1.48E+02	3.98E+02	7.99E+02	1.98E+03
408	1.73E+02	3.99E+02	8.21E+02	2.04E+03
408.5	1.89E+02	3.94E+02	8.48E+02	2.10E+03
409	2.02E+02	4.01E+02	9.01E+02	2.14E+03
409.5	2.10E+02	4.14E+02	9.60E+02	2.18E+03
410	2.22E+02	4.44E+02	9.97E+02	2.20E+03
410.5	2.21E+02	4.71E+02	1.04E+03	2.26E+03
411	2.45E+02	4.88E+02	1.08E+03	2.35E+03
411.5	2.49E+02	4.69E+02	1.11E+03	2.45E+03
412	2.31E+02	4.66E+02	1.13E+03	2.55E+03
412.5	2.29E+02	4.91E+02	1.14E+03	2.63E+03
413	2.19E+02	5.13E+02	1.14E+03	2.68E+03
413.5	2.19E+02	5.35E+02	1.19E+03	2.75E+03
414	2.23E+02	5.51E+02	1.24E+03	2.87E+03
414.5	2.07E+02	5.62E+02	1.31E+03	2.99E+03
415	2.05E+02	5.91E+02	1.35E+03	3.08E+03
415.5	2.04E+02	6.24E+02	1.40E+03	3.19E+03
416	2.21E+02	6.36E+02	1.43E+03	3.25E+03
416.5	2.24E+02	6.45E+02	1.47E+03	3.35E+03
417	2.52E+02	6.74E+02	1.51E+03	3.46E+03
417.5	2.87E+02	6.83E+02	1.56E+03	3.57E+03
418	2.91E+02	7.43E+02	1.62E+03	3.71E+03
418.5	2.73E+02	7.92E+02	1.68E+03	3.80E+03
419	2.63E+02	8.11E+02	1.68E+03	3.87E+03
419.5	2.59E+02	8.00E+02	1.67E+03	3.93E+03
420	2.84E+02	7.88E+02	1.68E+03	3.98E+03
420.5	3.03E+02	7.68E+02	1.69E+03	4.03E+03
421	3.10E+02	7.90E+02	1.70E+03	4.09E+03
421.5	3.07E+02	8.26E+02	1.72E+03	4.14E+03
422	3.17E+02	8.54E+02	1.75E+03	4.19E+03
422.5	3.34E+02	8.77E+02	1.80E+03	4.22E+03
423	3.61E+02	8.77E+02	1.87E+03	4.27E+03
423.5	3.65E+02	8.75E+02	1.90E+03	4.29E+03
424	3.59E+02	8.88E+02	1.94E+03	4.39E+03
424.5	3.57E+02	9.04E+02	1.94E+03	4.47E+03
425	3.59E+02	9.17E+02	1.96E+03	4.55E+03
425.5	3.55E+02	9.40E+02	2.00E+03	4.62E+03
426	3.66E+02	9.74E+02	2.04E+03	4.66E+03
426.5	4.02E+02	1.00E+03	2.09E+03	4.70E+03
427	4.39E+02	1.01E+03	2.13E+03	4.75E+03
427.5	4.55E+02	9.91E+02	2.15E+03	4.79E+03
428	4.28E+02	9.77E+02	2.16E+03	4.86E+03
428.5	4.08E+02	9.99E+02	2.16E+03	4.91E+03
429	4.14E+02	1.01E+03	2.17E+03	4.96E+03
429.5	4.33E+02	1.03E+03	2.21E+03	5.00E+03
430	4.43E+02	1.05E+03	2.26E+03	5.04E+03
430.5	4.26E+02	1.09E+03	2.31E+03	5.13E+03
431	4.05E+02	1.11E+03	2.34E+03	5.21E+03
431.5	4.00E+02	1.10E+03	2.33E+03	5.29E+03
432	4.32E+02	1.10E+03	2.33E+03	5.40E+03
432.5	4.70E+02	1.13E+03	2.35E+03	5.50E+03
433	4.96E+02	1.18E+03	2.39E+03	5.64E+03
433.5	5.12E+02	1.20E+03	2.46E+03	5.75E+03
434	5.05E+02	1.23E+03	2.54E+03	5.82E+03
434.5	4.88E+02	1.25E+03	2.61E+03	5.93E+03
435	4.96E+02	1.26E+03	2.69E+03	6.03E+03
435.5	5.03E+02	1.26E+03	2.74E+03	6.16E+03
436	5.41E+02	1.29E+03	2.80E+03	6.31E+03
436.5	5.87E+02	1.35E+03	2.89E+03	6.43E+03
437	6.07E+02	1.42E+03	2.96E+03	6.60E+03
437.5	6.23E+02	1.49E+03	3.02E+03	6.72E+03
438	6.19E+02	1.50E+03	3.08E+03	6.86E+03
438.5	6.26E+02	1.52E+03	3.11E+03	7.00E+03
439	6.39E+02	1.55E+03	3.16E+03	7.12E+03
439.5	6.43E+02	1.56E+03	3.24E+03	7.23E+03
440	6.43E+02	1.61E+03	3.27E+03	7.39E+03
440.5	6.52E+02	1.62E+03	3.34E+03	7.58E+03
441	6.50E+02	1.62E+03	3.39E+03	7.76E+03
441.5	6.78E+02	1.65E+03	3.49E+03	7.90E+03
442	7.05E+02	1.67E+03	3.58E+03	7.95E+03
442.5	7.41E+02	1.70E+03	3.66E+03	8.04E+03
443	7.35E+02	1.71E+03	3.69E+03	8.11E+03
443.5	7.48E+02	1.72E+03	3.70E+03	8.22E+03
444	7.45E+02	1.74E+03	3.72E+03	8.27E+03
444.5	7.37E+02	1.76E+03	3.74E+03	8.29E+03
445	7.59E+02	1.80E+03	3.75E+03	8.32E+03
445.5	7.47E+02	1.80E+03	3.79E+03	8.35E+03
446	7.75E+02	1.80E+03	3.84E+03	8.43E+03
446.5	8.12E+02	1.84E+03	3.86E+03	8.50E+03
447	8.16E+02	1.88E+03	3.87E+03	8.55E+03
447.5	8.23E+02	1.88E+03	3.84E+03	8.62E+03
448	8.17E+02	1.89E+03	3.85E+03	8.66E+03
448.5	8.35E+02	1.87E+03	3.91E+03	8.68E+03
449	8.52E+02	1.87E+03	3.95E+03	8.68E+03
449.5	8.53E+02	1.90E+03	3.94E+03	8.62E+03
450	8.38E+02	1.89E+03	3.94E+03	8.63E+03
450.5	8.26E+02	1.88E+03	3.91E+03	8.67E+03
451	8.17E+02	1.89E+03	3.92E+03	8.72E+03
451.5	8.47E+02	1.88E+03	3.96E+03	8.72E+03
452	8.49E+02	1.90E+03	3.97E+03	8.70E+03
452.5	8.34E+02	1.90E+03	3.95E+03	8.70E+03
453	8.07E+02	1.90E+03	3.94E+03	8.75E+03
453.5	7.97E+02	1.90E+03	3.91E+03	8.81E+03
454	8.02E+02	1.90E+03	3.95E+03	8.84E+03
454.5	8.22E+02	1.88E+03	3.99E+03	8.84E+03
455	8.19E+02	1.90E+03	4.04E+03	8.88E+03
455.5	8.25E+02	1.91E+03	4.11E+03	8.95E+03
456	8.35E+02	1.93E+03	4.14E+03	8.99E+03
456.5	8.50E+02	1.98E+03	4.18E+03	9.07E+03
457	8.56E+02	2.01E+03	4.18E+03	9.13E+03
457.5	8.74E+02	2.07E+03	4.19E+03	9.24E+03
458	8.93E+02	2.11E+03	4.21E+03	9.36E+03
458.5	9.21E+02	2.13E+03	4.26E+03	9.46E+03
459	9.58E+02	2.16E+03	4.33E+03	9.54E+03
459.5	9.20E+02	2.17E+03	4.36E+03	9.60E+03
460	9.06E+02	2.15E+03	4.42E+03	9.68E+03
460.5	8.90E+02	2.15E+03	4.51E+03	9.80E+03
461	9.13E+02	2.18E+03	4.52E+03	9.91E+03
461.5	9.67E+02	2.22E+03	4.58E+03	1.01E+04
462	1.01E+03	2.30E+03	4.62E+03	1.02E+04
462.5	1.07E+03	2.36E+03	4.70E+03	1.04E+04
463	1.09E+03	2.41E+03	4.83E+03	1.07E+04
463.5	1.13E+03	2.47E+03	4.95E+03	1.09E+04
464	1.14E+03	2.49E+03	5.10E+03	1.11E+04
464.5	1.12E+03	2.53E+03	5.21E+03	1.12E+04
465	1.13E+03	2.58E+03	5.29E+03	1.14E+04
465.5	1.16E+03	2.63E+03	5.33E+03	1.15E+04
466	1.19E+03	2.70E+03	5.38E+03	1.18E+04
466.5	1.23E+03	2.77E+03	5.47E+03	1.22E+04
467	1.25E+03	2.85E+03	5.61E+03	1.25E+04
467.5	1.24E+03	2.91E+03	5.74E+03	1.28E+04
468	1.26E+03	2.96E+03	5.90E+03	1.30E+04
468.5	1.28E+03	3.00E+03	6.03E+03	1.31E+04
469	1.32E+03	3.03E+03	6.17E+03	1.33E+04
469.5	1.35E+03	3.08E+03	6.26E+03	1.35E+04
470	1.36E+03	3.13E+03	6.36E+03	1.37E+04
470.5	1.40E+03	3.20E+03	6.46E+03	1.38E+04
471	1.43E+03	3.27E+03	6.55E+03	1.40E+04
471.5	1.47E+03	3.32E+03	6.68E+03	1.42E+04
472	1.49E+03	3.36E+03	6.78E+03	1.45E+04
472.5	1.50E+03	3.40E+03	6.89E+03	1.47E+04
473	1.51E+03	3.44E+03	7.00E+03	1.48E+04
473.5	1.53E+03	3.49E+03	7.09E+03	1.49E+04
474	1.53E+03	3.54E+03	7.15E+03	1.50E+04
474.5	1.53E+03	3.58E+03	7.21E+03	1.52E+04
475	1.53E+03	3.60E+03	7.24E+03	1.54E+04
475.5	1.53E+03	3.65E+03	7.27E+03	1.55E+04
476	1.54E+03	3.69E+03	7.32E+03	1.56E+04
476.5	1.57E+03	3.75E+03	7.40E+03	1.57E+04
477	1.61E+03	3.79E+03	7.52E+03	1.58E+04
477.5	1.65E+03	3.75E+03	7.57E+03	1.59E+04
478	1.70E+03	3.73E+03	7.61E+03	1.60E+04
478.5	1.72E+03	3.74E+03	7.56E+03	1.61E+04
479	1.74E+03	3.76E+03	7.57E+03	1.61E+04
479.5	1.72E+03	3.83E+03	7.59E+03	1.62E+04
480	1.72E+03	3.86E+03	7.66E+03	1.62E+04
480.5	1.73E+03	3.89E+03	7.74E+03	1.63E+04
481	1.72E+03	3.91E+03	7.79E+03	1.65E+04
481.5	1.71E+03	3.90E+03	7.83E+03	1.66E+04
482	1.72E+03	3.92E+03	7.84E+03	1.67E+04
482.5	1.73E+03	3.95E+03	7.87E+03	1.68E+04
483	1.75E+03	4.00E+03	7.94E+03	1.68E+04
483.5	1.79E+03	4.07E+03	8.04E+03	1.69E+04
484	1.81E+03	4.11E+03	8.10E+03	1.71E+04
484.5	1.81E+03	4.13E+03	8.15E+03	1.73E+04
485	1.82E+03	4.16E+03	8.16E+03	1.74E+04
485.5	1.81E+03	4.19E+03	8.18E+03	1.75E+04
486	1.81E+03	4.21E+03	8.24E+03	1.75E+04
486.5	1.81E+03	4.26E+03	8.32E+03	1.75E+04
487	1.82E+03	4.25E+03	8.39E+03	1.76E+04
487.5	1.84E+03	4.25E+03	8.46E+03	1.76E+04
488	1.89E+03	4.24E+03	8.52E+03	1.78E+04
488.5	1.94E+03	4.26E+03	8.61E+03	1.79E+04
489	1.97E+03	4.32E+03	8.71E+03	1.80E+04
489.5	2.00E+03	4.36E+03	8.77E+03	1.81E+04
490	2.04E+03	4.39E+03	8.80E+03	1.83E+04
490.5	2.05E+03	4.43E+03	8.86E+03	1.85E+04
491	2.08E+03	4.49E+03	8.95E+03	1.88E+04
491.5	2.10E+03	4.58E+03	9.01E+03	1.90E+04
492	2.12E+03	4.62E+03	9.11E+03	1.91E+04
492.5	2.12E+03	4.65E+03	9.16E+03	1.93E+04
493	2.10E+03	4.68E+03	9.24E+03	1.94E+04
493.5	2.14E+03	4.72E+03	9.39E+03	1.95E+04
494	2.17E+03	4.77E+03	9.48E+03	1.96E+04
494.5	2.22E+03	4.83E+03	9.59E+03	1.96E+04
495	2.25E+03	4.88E+03	9.63E+03	1.98E+04
495.5	2.25E+03	4.95E+03	9.68E+03	2.00E+04
496	2.26E+03	5.03E+03	9.75E+03	2.03E+04
496.5	2.28E+03	5.06E+03	9.81E+03	2.05E+04
497	2.30E+03	5.10E+03	9.91E+03	2.07E+04
497.5	2.32E+03	5.12E+03	1.00E+04	2.09E+04
498	2.35E+03	5.16E+03	1.01E+04	2.10E+04
498.5	2.38E+03	5.17E+03	1.02E+04	2.12E+04
499	2.43E+03	5.20E+03	1.04E+04	2.13E+04
499.5	2.47E+03	5.25E+03	1.06E+04	2.15E+04
500	2.50E+03	5.30E+03	1.07E+04	2.17E+04
500.5	2.50E+03	5.38E+03	1.08E+04	2.20E+04
501	2.49E+03	5.44E+03	1.09E+04	2.22E+04
501.5	2.49E+03	5.46E+03	1.09E+04	2.24E+04
502	2.50E+03	5.53E+03	1.09E+04	2.27E+04
502.5	2.52E+03	5.58E+03	1.10E+04	2.28E+04
503	2.57E+03	5.64E+03	1.11E+04	2.30E+04
503.5	2.61E+03	5.72E+03	1.11E+04	2.30E+04
504	2.65E+03	5.78E+03	1.12E+04	2.32E+04
504.5	2.67E+03	5.84E+03	1.13E+04	2.33E+04
505	2.70E+03	5.88E+03	1.14E+04	2.34E+04
505.5	2.75E+03	5.91E+03	1.15E+04	2.35E+04
506	2.76E+03	5.96E+03	1.15E+04	2.36E+04
506.5	2.76E+03	6.02E+03	1.16E+04	2.38E+04
507	2.77E+03	6.05E+03	1.17E+04	2.39E+04
507.5	2.75E+03	6.05E+03	1.17E+04	2.40E+04
508	2.78E+03	6.05E+03	1.17E+04	2.40E+04
508.5	2.80E+03	6.04E+03	1.18E+04	2.41E+04
509	2.82E+03	6.07E+03	1.19E+04	2.42E+04
509.5	2.85E+03	6.10E+03	1.19E+04	2.43E+04
510	2.87E+03	6.08E+03	1.19E+04	2.43E+04
510.5	2.87E+03	6.12E+03	1.19E+04	2.42E+04
511	2.87E+03	6.17E+03	1.20E+04	2.42E+04
511.5	2.84E+03	6.17E+03	1.20E+04	2.41E+04
512	2.81E+03	6.15E+03	1.19E+04	2.42E+04
512.5	2.81E+03	6.10E+03	1.19E+04	2.41E+04
513	2.82E+03	6.05E+03	1.19E+04	2.41E+04
513.5	2.84E+03	6.09E+03	1.19E+04	2.41E+04
514	2.86E+03	6.15E+03	1.18E+04	2.40E+04
514.5	2.86E+03	6.16E+03	1.19E+04	2.39E+04
515	2.84E+03	6.15E+03	1.19E+04	2.38E+04
515.5	2.85E+03	6.12E+03	1.19E+04	2.37E+04
516	2.83E+03	6.11E+03	1.19E+04	2.35E+04
516.5	2.84E+03	6.11E+03	1.17E+04	2.34E+04
517	2.87E+03	6.12E+03	1.16E+04	2.33E+04
517.5	2.84E+03	6.09E+03	1.16E+04	2.32E+04
518	2.84E+03	6.06E+03	1.16E+04	2.31E+04
518.5	2.85E+03	6.04E+03	1.15E+04	2.30E+04
519	2.85E+03	5.98E+03	1.15E+04	2.30E+04
519.5	2.84E+03	5.96E+03	1.15E+04	2.29E+04
520	2.84E+03	5.97E+03	1.15E+04	2.30E+04
520.5	2.81E+03	5.94E+03	1.15E+04	2.29E+04
521	2.81E+03	5.93E+03	1.15E+04	2.29E+04
521.5	2.84E+03	5.92E+03	1.15E+04	2.29E+04
522	2.83E+03	5.94E+03	1.15E+04	2.29E+04
522.5	2.86E+03	6.00E+03	1.15E+04	2.29E+04
523	2.85E+03	6.03E+03	1.14E+04	2.28E+04
523.5	2.84E+03	6.01E+03	1.13E+04	2.27E+04
524	2.83E+03	5.98E+03	1.13E+04	2.27E+04
524.5	2.80E+03	5.94E+03	1.13E+04	2.27E+04
525	2.78E+03	5.97E+03	1.13E+04	2.27E+04
525.5	2.79E+03	5.99E+03	1.13E+04	2.27E+04
526	2.82E+03	6.00E+03	1.12E+04	2.26E+04
526.5	2.87E+03	6.01E+03	1.12E+04	2.26E+04
527	2.90E+03	5.99E+03	1.12E+04	2.26E+04
527.5	2.88E+03	5.97E+03	1.12E+04	2.26E+04
528	2.83E+03	5.98E+03	1.13E+04	2.26E+04
528.5	2.79E+03	6.01E+03	1.13E+04	2.26E+04
529	2.77E+03	6.08E+03	1.13E+04	2.27E+04
529.5	2.80E+03	6.10E+03	1.14E+04	2.27E+04
530	2.86E+03	6.09E+03	1.14E+04	2.27E+04
530.5	2.90E+03	6.08E+03	1.14E+04	2.27E+04
531	2.92E+03	6.06E+03	1.15E+04	2.27E+04
531.5	2.92E+03	6.10E+03	1.15E+04	2.27E+04
532	2.92E+03	6.15E+03	1.14E+04	2.28E+04
532.5	2.96E+03	6.22E+03	1.15E+04	2.29E+04
533	3.02E+03	6.29E+03	1.16E+04	2.31E+04
533.5	3.04E+03	6.31E+03	1.17E+04	2.32E+04
534	3.04E+03	6.29E+03	1.18E+04	2.33E+04
534.5	3.00E+03	6.26E+03	1.18E+04	2.33E+04
535	2.99E+03	6.27E+03	1.18E+04	2.33E+04
535.5	2.98E+03	6.31E+03	1.19E+04	2.34E+04
536	3.00E+03	6.35E+03	1.20E+04	2.35E+04
536.5	3.06E+03	6.37E+03	1.20E+04	2.37E+04
537	3.10E+03	6.40E+03	1.21E+04	2.37E+04
537.5	3.16E+03	6.44E+03	1.21E+04	2.37E+04
538	3.20E+03	6.46E+03	1.20E+04	2.38E+04
538.5	3.21E+03	6.49E+03	1.21E+04	2.40E+04
539	3.23E+03	6.53E+03	1.22E+04	2.42E+04
539.5	3.21E+03	6.60E+03	1.24E+04	2.44E+04
540	3.21E+03	6.70E+03	1.25E+04	2.45E+04
540.5	3.22E+03	6.74E+03	1.26E+04	2.47E+04
541	3.26E+03	6.78E+03	1.26E+04	2.48E+04
541.5	3.30E+03	6.80E+03	1.27E+04	2.49E+04
542	3.34E+03	6.85E+03	1.27E+04	2.49E+04
542.5	3.35E+03	6.89E+03	1.28E+04	2.50E+04
543	3.34E+03	6.95E+03	1.29E+04	2.50E+04
543.5	3.37E+03	6.95E+03	1.30E+04	2.51E+04
544	3.35E+03	6.95E+03	1.30E+04	2.53E+04
544.5	3.39E+03	7.02E+03	1.31E+04	2.53E+04
545	3.43E+03	7.07E+03	1.31E+04	2.54E+04
545.5	3.44E+03	7.11E+03	1.32E+04	2.56E+04
546	3.49E+03	7.11E+03	1.32E+04	2.57E+04
546.5	3.51E+03	7.10E+03	1.33E+04	2.59E+04
547	3.51E+03	7.14E+03	1.34E+04	2.60E+04
547.5	3.54E+03	7.23E+03	1.35E+04	2.61E+04
548	3.54E+03	7.30E+03	1.35E+04	2.62E+04
548.5	3.55E+03	7.32E+03	1.36E+04	2.63E+04
549	3.57E+03	7.31E+03	1.36E+04	2.64E+04
549.5	3.60E+03	7.33E+03	1.37E+04	2.66E+04
550	3.63E+03	7.38E+03	1.38E+04	2.68E+04
550.5	3.65E+03	7.45E+03	1.38E+04	2.68E+04
551	3.67E+03	7.51E+03	1.38E+04	2.69E+04
551.5	3.68E+03	7.54E+03	1.39E+04	2.69E+04
552	3.71E+03	7.58E+03	1.39E+04	2.69E+04
552.5	3.72E+03	7.60E+03	1.40E+04	2.69E+04
553	3.73E+03	7.60E+03	1.40E+04	2.70E+04
553.5	3.73E+03	7.59E+03	1.40E+04	2.71E+04
554	3.73E+03	7.59E+03	1.41E+04	2.71E+04
554.5	3.76E+03	7.63E+03	1.41E+04	2.71E+04
555	3.80E+03	7.71E+03	1.42E+04	2.71E+04
555.5	3.82E+03	7.73E+03	1.42E+04	2.72E+04
556	3.82E+03	7.76E+03	1.42E+04	2.72E+04
556.5	3.76E+03	7.76E+03	1.41E+04	2.71E+04
557	3.74E+03	7.70E+03	1.41E+04	2.70E+04
557.5	3.73E+03	7.64E+03	1.40E+04	2.69E+04
558	3.71E+03	7.54E+03	1.40E+04	2.67E+04
558.5	3.72E+03	7.51E+03	1.39E+04	2.66E+04
559	3.71E+03	7.52E+03	1.39E+04	2.65E+04
559.5	3.71E+03	7.55E+03	1.39E+04	2.64E+04
560	3.75E+03	7.60E+03	1.39E+04	2.64E+04
560.5	3.74E+03	7.61E+03	1.39E+04	2.63E+04
561	3.70E+03	7.59E+03	1.38E+04	2.62E+04
561.5	3.67E+03	7.54E+03	1.38E+04	2.60E+04
562	3.64E+03	7.45E+03	1.37E+04	2.59E+04
562.5	3.64E+03	7.37E+03	1.36E+04	2.58E+04
563	3.64E+03	7.35E+03	1.35E+04	2.57E+04
563.5	3.63E+03	7.31E+03	1.34E+04	2.56E+04
564	3.63E+03	7.29E+03	1.34E+04	2.54E+04
564.5	3.62E+03	7.27E+03	1.33E+04	2.53E+04
565	3.63E+03	7.23E+03	1.33E+04	2.51E+04
565.5	3.59E+03	7.21E+03	1.32E+04	2.50E+04
566	3.56E+03	7.15E+03	1.32E+04	2.49E+04
566.5	3.55E+03	7.10E+03	1.31E+04	2.48E+04
567	3.58E+03	7.09E+03	1.30E+04	2.46E+04
567.5	3.60E+03	7.06E+03	1.29E+04	2.45E+04
568	3.60E+03	7.09E+03	1.29E+04	2.44E+04
568.5	3.59E+03	7.11E+03	1.28E+04	2.42E+04
569	3.52E+03	7.12E+03	1.28E+04	2.42E+04
569.5	3.52E+03	7.10E+03	1.27E+04	2.42E+04
570	3.49E+03	7.05E+03	1.26E+04	2.41E+04
570.5	3.46E+03	6.99E+03	1.26E+04	2.40E+04
571	3.46E+03	6.93E+03	1.26E+04	2.38E+04
571.5	3.44E+03	6.91E+03	1.25E+04	2.37E+04
572	3.38E+03	6.91E+03	1.25E+04	2.36E+04
572.5	3.40E+03	6.89E+03	1.25E+04	2.37E+04
573	3.42E+03	6.88E+03	1.25E+04	2.37E+04
573.5	3.44E+03	6.88E+03	1.26E+04	2.37E+04
574	3.53E+03	6.89E+03	1.25E+04	2.37E+04
574.5	3.56E+03	6.92E+03	1.25E+04	2.36E+04
575	3.54E+03	6.94E+03	1.24E+04	2.35E+04
575.5	3.52E+03	6.92E+03	1.24E+04	2.34E+04
576	3.48E+03	6.89E+03	1.25E+04	2.33E+04
576.5	3.44E+03	6.87E+03	1.25E+04	2.33E+04
577	3.45E+03	6.88E+03	1.25E+04	2.33E+04
577.5	3.47E+03	6.90E+03	1.26E+04	2.33E+04
578	3.51E+03	6.90E+03	1.26E+04	2.33E+04
578.5	3.57E+03	6.89E+03	1.26E+04	2.34E+04
579	3.58E+03	6.92E+03	1.26E+04	2.33E+04
579.5	3.57E+03	6.94E+03	1.25E+04	2.34E+04
580	3.59E+03	6.99E+03	1.25E+04	2.34E+04
580.5	3.58E+03	7.02E+03	1.25E+04	2.33E+04
581	3.61E+03	6.98E+03	1.25E+04	2.35E+04
581.5	3.61E+03	6.99E+03	1.25E+04	2.35E+04
582	3.57E+03	7.00E+03	1.25E+04	2.35E+04
582.5	3.56E+03	7.01E+03	1.25E+04	2.35E+04
583	3.54E+03	7.04E+03	1.26E+04	2.35E+04
583.5	3.57E+03	7.04E+03	1.27E+04	2.35E+04
584	3.59E+03	7.02E+03	1.26E+04	2.35E+04
584.5	3.61E+03	7.05E+03	1.26E+04	2.35E+04
585	3.62E+03	7.05E+03	1.26E+04	2.35E+04
585.5	3.62E+03	7.09E+03	1.26E+04	2.35E+04
586	3.64E+03	7.12E+03	1.27E+04	2.35E+04
586.5	3.64E+03	7.16E+03	1.28E+04	2.36E+04
587	3.65E+03	7.23E+03	1.28E+04	2.38E+04
587.5	3.65E+03	7.30E+03	1.28E+04	2.39E+04
588	3.63E+03	7.32E+03	1.28E+04	2.39E+04
588.5	3.63E+03	7.32E+03	1.28E+04	2.39E+04
589	3.63E+03	7.30E+03	1.28E+04	2.39E+04
589.5	3.64E+03	7.28E+03	1.28E+04	2.39E+04
590	3.66E+03	7.30E+03	1.28E+04	2.40E+04
590.5	3.71E+03	7.35E+03	1.28E+04	2.40E+04
591	3.75E+03	7.37E+03	1.29E+04	2.41E+04
591.5	3.79E+03	7.38E+03	1.30E+04	2.42E+04
592	3.82E+03	7.40E+03	1.30E+04	2.42E+04
592.5	3.80E+03	7.39E+03	1.30E+04	2.42E+04
593	3.80E+03	7.42E+03	1.30E+04	2.42E+04
593.5	3.80E+03	7.43E+03	1.30E+04	2.43E+04
594	3.82E+03	7.40E+03	1.31E+04	2.44E+04
594.5	3.82E+03	7.39E+03	1.32E+04	2.44E+04
595	3.79E+03	7.37E+03	1.32E+04	2.44E+04
595.5	3.80E+03	7.42E+03	1.32E+04	2.43E+04
596	3.81E+03	7.44E+03	1.31E+04	2.43E+04
596.5	3.87E+03	7.46E+03	1.31E+04	2.43E+04
597	3.93E+03	7.46E+03	1.31E+04	2.43E+04
597.5	3.96E+03	7.46E+03	1.31E+04	2.43E+04
598	3.97E+03	7.47E+03	1.32E+04	2.43E+04
598.5	3.95E+03	7.49E+03	1.32E+04	2.42E+04
599	3.92E+03	7.50E+03	1.32E+04	2.42E+04
599.5	3.89E+03	7.51E+03	1.32E+04	2.42E+04
600	3.90E+03	7.54E+03	1.32E+04	2.42E+04
600.5	3.90E+03	7.52E+03	1.32E+04	2.43E+04
601	3.89E+03	7.50E+03	1.32E+04	2.42E+04
601.5	3.88E+03	7.51E+03	1.31E+04	2.41E+04
602	3.86E+03	7.51E+03	1.31E+04	2.41E+04
602.5	3.85E+03	7.51E+03	1.31E+04	2.40E+04
603	3.86E+03	7.47E+03	1.30E+04	2.39E+04
603.5	3.83E+03	7.40E+03	1.30E+04	2.39E+04
604	3.82E+03	7.37E+03	1.30E+04	2.39E+04
604.5	3.84E+03	7.38E+03	1.30E+04	2.39E+04
605	3.85E+03	7.38E+03	1.30E+04	2.39E+04
605.5	3.86E+03	7.39E+03	1.29E+04	2.38E+04
606	3.85E+03	7.35E+03	1.28E+04	2.36E+04
606.5	3.84E+03	7.31E+03	1.28E+04	2.34E+04
607	3.84E+03	7.31E+03	1.27E+04	2.32E+04
607.5	3.83E+03	7.26E+03	1.27E+04	2.30E+04
608	3.81E+03	7.24E+03	1.26E+04	2.30E+04
608.5	3.80E+03	7.23E+03	1.26E+04	2.29E+04
609	3.78E+03	7.22E+03	1.26E+04	2.28E+04
609.5	3.77E+03	7.21E+03	1.25E+04	2.28E+04
610	3.76E+03	7.18E+03	1.24E+04	2.27E+04
610.5	3.73E+03	7.13E+03	1.24E+04	2.25E+04
611	3.69E+03	7.07E+03	1.25E+04	2.25E+04
611.5	3.64E+03	7.06E+03	1.25E+04	2.24E+04
612	3.64E+03	7.08E+03	1.25E+04	2.23E+04
612.5	3.66E+03	7.09E+03	1.24E+04	2.23E+04
613	3.70E+03	7.08E+03	1.23E+04	2.22E+04
613.5	3.72E+03	7.05E+03	1.22E+04	2.22E+04
614	3.69E+03	7.01E+03	1.22E+04	2.21E+04
614.5	3.66E+03	6.97E+03	1.22E+04	2.19E+04
615	3.67E+03	6.98E+03	1.21E+04	2.18E+04
615.5	3.69E+03	6.98E+03	1.22E+04	2.17E+04
616	3.73E+03	6.97E+03	1.21E+04	2.17E+04
616.5	3.73E+03	6.95E+03	1.21E+04	2.18E+04
617	3.67E+03	6.89E+03	1.21E+04	2.17E+04
617.5	3.62E+03	6.83E+03	1.19E+04	2.16E+04
618	3.57E+03	6.77E+03	1.19E+04	2.15E+04
618.5	3.57E+03	6.75E+03	1.19E+04	2.14E+04
619	3.60E+03	6.78E+03	1.19E+04	2.14E+04
619.5	3.64E+03	6.77E+03	1.19E+04	2.14E+04
620	3.66E+03	6.79E+03	1.19E+04	2.14E+04
620.5	3.64E+03	6.79E+03	1.18E+04	2.14E+04
621	3.61E+03	6.77E+03	1.17E+04	2.13E+04
621.5	3.59E+03	6.81E+03	1.17E+04	2.12E+04
622	3.61E+03	6.83E+03	1.16E+04	2.11E+04
622.5	3.61E+03	6.82E+03	1.16E+04	2.11E+04
623	3.62E+03	6.80E+03	1.17E+04	2.11E+04
623.5	3.62E+03	6.79E+03	1.18E+04	2.12E+04
624	3.65E+03	6.77E+03	1.18E+04	2.11E+04
624.5	3.63E+03	6.78E+03	1.17E+04	2.11E+04
625	3.63E+03	6.78E+03	1.17E+04	2.10E+04
625.5	3.63E+03	6.77E+03	1.17E+04	2.10E+04
626	3.62E+03	6.76E+03	1.17E+04	2.10E+04
626.5	3.65E+03	6.76E+03	1.17E+04	2.10E+04
627	3.66E+03	6.76E+03	1.17E+04	2.10E+04
627.5	3.62E+03	6.75E+03	1.17E+04	2.10E+04
628	3.62E+03	6.75E+03	1.18E+04	2.09E+04
628.5	3.63E+03	6.72E+03	1.18E+04	2.10E+04
629	3.66E+03	6.74E+03	1.18E+04	2.10E+04
629.5	3.70E+03	6.76E+03	1.19E+04	2.10E+04
630	3.68E+03	6.76E+03	1.18E+04	2.10E+04
630.5	3.66E+03	6.77E+03	1.18E+04	2.10E+04
631	3.67E+03	6.75E+03	1.18E+04	2.10E+04
631.5	3.64E+03	6.78E+03	1.18E+04	2.10E+04
632	3.66E+03	6.84E+03	1.18E+04	2.09E+04
632.5	3.66E+03	6.92E+03	1.19E+04	2.09E+04
633	3.64E+03	6.99E+03	1.18E+04	2.09E+04
633.5	3.65E+03	6.98E+03	1.19E+04	2.10E+04
634	3.65E+03	6.98E+03	1.19E+04	2.11E+04
634.5	3.67E+03	6.97E+03	1.19E+04	2.11E+04
635	3.70E+03	6.97E+03	1.20E+04	2.11E+04
635.5	3.71E+03	6.99E+03	1.20E+04	2.11E+04
636	3.73E+03	6.98E+03	1.20E+04	2.11E+04
636.5	3.74E+03	6.98E+03	1.20E+04	2.13E+04
637	3.74E+03	7.01E+03	1.20E+04	2.14E+04
637.5	3.78E+03	7.04E+03	1.19E+04	2.15E+04
638	3.81E+03	7.08E+03	1.19E+04	2.15E+04
638.5	3.80E+03	7.11E+03	1.20E+04	2.15E+04
639	3.80E+03	7.18E+03	1.20E+04	2.16E+04
639.5	3.78E+03	7.22E+03	1.21E+04	2.16E+04
640	3.77E+03	7.23E+03	1.22E+04	2.16E+04
640.5	3.79E+03	7.19E+03	1.22E+04	2.16E+04
641	3.82E+03	7.13E+03	1.22E+04	2.16E+04
641.5	3.83E+03	7.10E+03	1.22E+04	2.15E+04
642	3.85E+03	7.14E+03	1.23E+04	2.15E+04
642.5	3.85E+03	7.20E+03	1.23E+04	2.15E+04
643	3.84E+03	7.24E+03	1.23E+04	2.16E+04
643.5	3.86E+03	7.27E+03	1.24E+04	2.16E+04
644	3.90E+03	7.23E+03	1.24E+04	2.15E+04
644.5	3.89E+03	7.19E+03	1.24E+04	2.16E+04
645	3.88E+03	7.15E+03	1.24E+04	2.15E+04
645.5	3.88E+03	7.14E+03	1.24E+04	2.16E+04
646	3.87E+03	7.14E+03	1.23E+04	2.15E+04
646.5	3.91E+03	7.14E+03	1.23E+04	2.14E+04
647	3.94E+03	7.11E+03	1.22E+04	2.14E+04
647.5	3.96E+03	7.09E+03	1.22E+04	2.14E+04
648	3.98E+03	7.10E+03	1.22E+04	2.14E+04
648.5	4.01E+03	7.11E+03	1.22E+04	2.15E+04
649	4.00E+03	7.13E+03	1.21E+04	2.16E+04
649.5	3.97E+03	7.16E+03	1.21E+04	2.16E+04
650	3.96E+03	7.18E+03	1.21E+04	2.16E+04
650.5	3.93E+03	7.19E+03	1.21E+04	2.15E+04
651	3.92E+03	7.23E+03	1.21E+04	2.14E+04
651.5	3.92E+03	7.24E+03	1.21E+04	2.13E+04
652	3.89E+03	7.22E+03	1.20E+04	2.13E+04
652.5	3.86E+03	7.18E+03	1.20E+04	2.13E+04
653	3.88E+03	7.14E+03	1.20E+04	2.12E+04
653.5	3.88E+03	7.09E+03	1.20E+04	2.12E+04
654	3.87E+03	7.04E+03	1.20E+04	2.11E+04
654.5	3.87E+03	7.02E+03	1.20E+04	2.09E+04
655	3.85E+03	7.01E+03	1.20E+04	2.08E+04
655.5	3.85E+03	7.01E+03	1.20E+04	2.07E+04
656	3.84E+03	7.00E+03	1.19E+04	2.06E+04
656.5	3.83E+03	7.02E+03	1.19E+04	2.06E+04
657	3.82E+03	7.02E+03	1.18E+04	2.06E+04
657.5	3.80E+03	6.98E+03	1.18E+04	2.06E+04
658	3.79E+03	6.91E+03	1.17E+04	2.05E+04
658.5	3.75E+03	6.83E+03	1.16E+04	2.04E+04
659	3.70E+03	6.77E+03	1.16E+04	2.03E+04
659.5	3.66E+03	6.78E+03	1.15E+04	2.02E+04
660	3.65E+03	6.82E+03	1.14E+04	2.01E+04
660.5	3.66E+03	6.83E+03	1.13E+04	1.99E+04
661	3.66E+03	6.79E+03	1.12E+04	1.98E+04
661.5	3.67E+03	6.73E+03	1.12E+04	1.96E+04
662	3.66E+03	6.67E+03	1.11E+04	1.94E+04
662.5	3.63E+03	6.62E+03	1.10E+04	1.92E+04
663	3.61E+03	6.62E+03	1.10E+04	1.90E+04
663.5	3.58E+03	6.60E+03	1.09E+04	1.89E+04
664	3.55E+03	6.59E+03	1.09E+04	1.88E+04
664.5	3.55E+03	6.54E+03	1.08E+04	1.87E+04
665	3.53E+03	6.49E+03	1.07E+04	1.85E+04
665.5	3.50E+03	6.47E+03	1.06E+04	1.84E+04
666	3.48E+03	6.41E+03	1.05E+04	1.83E+04
666.5	3.43E+03	6.33E+03	1.04E+04	1.82E+04
667	3.38E+03	6.23E+03	1.03E+04	1.81E+04
667.5	3.34E+03	6.13E+03	1.03E+04	1.79E+04
668	3.32E+03	6.07E+03	1.02E+04	1.78E+04
668.5	3.32E+03	6.05E+03	1.02E+04	1.76E+04
669	3.31E+03	6.03E+03	1.00E+04	1.74E+04
669.5	3.28E+03	6.01E+03	9.93E+03	1.72E+04
670	3.25E+03	5.96E+03	9.86E+03	1.70E+04
670.5	3.23E+03	5.95E+03	9.78E+03	1.68E+04
671	3.22E+03	5.91E+03	9.70E+03	1.66E+04
671.5	3.22E+03	5.86E+03	9.55E+03	1.65E+04
672	3.16E+03	5.79E+03	9.39E+03	1.64E+04
672.5	3.12E+03	5.71E+03	9.30E+03	1.63E+04
673	3.08E+03	5.63E+03	9.25E+03	1.62E+04
673.5	3.06E+03	5.55E+03	9.25E+03	1.60E+04
674	3.09E+03	5.47E+03	9.23E+03	1.58E+04
674.5	3.07E+03	5.39E+03	9.16E+03	1.56E+04
675	3.05E+03	5.34E+03	9.04E+03	1.55E+04
675.5	3.01E+03	5.31E+03	8.93E+03	1.53E+04
676	2.95E+03	5.28E+03	8.82E+03	1.52E+04
676.5	2.90E+03	5.25E+03	8.74E+03	1.50E+04
677	2.85E+03	5.21E+03	8.61E+03	1.48E+04
677.5	2.86E+03	5.15E+03	8.48E+03	1.46E+04
678	2.86E+03	5.13E+03	8.33E+03	1.44E+04
678.5	2.84E+03	5.09E+03	8.19E+03	1.42E+04
679	2.84E+03	5.01E+03	8.16E+03	1.41E+04
679.5	2.81E+03	4.93E+03	8.15E+03	1.40E+04
680	2.75E+03	4.82E+03	8.12E+03	1.38E+04
680.5	2.73E+03	4.73E+03	8.04E+03	1.36E+04
681	2.68E+03	4.68E+03	7.91E+03	1.35E+04
681.5	2.63E+03	4.65E+03	7.77E+03	1.33E+04
682	2.59E+03	4.60E+03	7.65E+03	1.31E+04
682.5	2.53E+03	4.53E+03	7.58E+03	1.29E+04
683	2.47E+03	4.47E+03	7.51E+03	1.28E+04
683.5	2.43E+03	4.41E+03	7.45E+03	1.27E+04
684	2.43E+03	4.38E+03	7.37E+03	1.25E+04
684.5	2.44E+03	4.38E+03	7.30E+03	1.25E+04
685	2.45E+03	4.36E+03	7.23E+03	1.24E+04
685.5	2.45E+03	4.35E+03	7.15E+03	1.23E+04
686	2.45E+03	4.37E+03	7.13E+03	1.23E+04
686.5	2.44E+03	4.38E+03	7.11E+03	1.22E+04
687	2.42E+03	4.38E+03	7.13E+03	1.21E+04
687.5	2.42E+03	4.40E+03	7.18E+03	1.20E+04
688	2.41E+03	4.37E+03	7.17E+03	1.20E+04
688.5	2.40E+03	4.35E+03	7.14E+03	1.19E+04
689	2.39E+03	4.33E+03	7.08E+03	1.19E+04
689.5	2.39E+03	4.31E+03	7.04E+03	1.20E+04
690	2.38E+03	4.32E+03	7.00E+03	1.20E+04
690.5	2.39E+03	4.33E+03	7.00E+03	1.20E+04
691	2.44E+03	4.31E+03	7.03E+03	1.21E+04
691.5	2.46E+03	4.31E+03	7.01E+03	1.21E+04
692	2.45E+03	4.29E+03	7.02E+03	1.21E+04
692.5	2.45E+03	4.26E+03	7.02E+03	1.20E+04
693	2.45E+03	4.28E+03	6.99E+03	1.20E+04
693.5	2.44E+03	4.28E+03	7.01E+03	1.19E+04
694	2.47E+03	4.29E+03	6.98E+03	1.19E+04
694.5	2.46E+03	4.32E+03	6.94E+03	1.18E+04
695	2.43E+03	4.29E+03	6.93E+03	1.18E+04
695.5	2.38E+03	4.25E+03	6.91E+03	1.18E+04
696	2.34E+03	4.23E+03	6.91E+03	1.17E+04
696.5	2.35E+03	4.20E+03	6.92E+03	1.16E+04
697	2.37E+03	4.16E+03	6.90E+03	1.15E+04
697.5	2.37E+03	4.16E+03	6.85E+03	1.14E+04
698	2.37E+03	4.13E+03	6.79E+03	1.14E+04
698.5	2.33E+03	4.10E+03	6.73E+03	1.13E+04
699	2.30E+03	4.11E+03	6.66E+03	1.13E+04
699.5	2.30E+03	4.09E+03	6.60E+03	1.12E+04
700	2.28E+03	4.07E+03	6.54E+03	1.11E+04
700.5	2.29E+03	4.04E+03	6.47E+03	1.10E+04
701	2.28E+03	4.03E+03	6.42E+03	1.09E+04
701.5	2.26E+03	4.01E+03	6.38E+03	1.08E+04
702	2.23E+03	3.96E+03	6.31E+03	1.08E+04
702.5	2.20E+03	3.93E+03	6.27E+03	1.07E+04
703	2.17E+03	3.86E+03	6.24E+03	1.06E+04
703.5	2.16E+03	3.80E+03	6.21E+03	1.05E+04
704	2.14E+03	3.79E+03	6.18E+03	1.04E+04
704.5	2.13E+03	3.77E+03	6.13E+03	1.03E+04
705	2.13E+03	3.76E+03	6.07E+03	1.01E+04
705.5	2.12E+03	3.74E+03	5.99E+03	1.01E+04
706	2.11E+03	3.73E+03	5.96E+03	1.00E+04
706.5	2.10E+03	3.70E+03	5.94E+03	9.98E+03
707	2.09E+03	3.68E+03	5.96E+03	9.93E+03
707.5	2.09E+03	3.69E+03	5.97E+03	9.88E+03
708	2.08E+03	3.67E+03	5.94E+03	9.82E+03
708.5	2.07E+03	3.67E+03	5.91E+03	9.75E+03
709	2.06E+03	3.67E+03	5.86E+03	9.68E+03
709.5	2.05E+03	3.61E+03	5.80E+03	9.61E+03
710	2.02E+03	3.55E+03	5.76E+03	9.54E+03
710.5	2.03E+03	3.52E+03	5.69E+03	9.54E+03
711	2.04E+03	3.49E+03	5.62E+03	9.55E+03
711.5	2.05E+03	3.47E+03	5.56E+03	9.48E+03
712	2.07E+03	3.46E+03	5.52E+03	9.42E+03
712.5	2.04E+03	3.43E+03	5.52E+03	9.32E+03
713	2.02E+03	3.41E+03	5.53E+03	9.18E+03
713.5	1.99E+03	3.39E+03	5.55E+03	9.11E+03
714	1.94E+03	3.34E+03	5.50E+03	9.04E+03
714.5	1.91E+03	3.29E+03	5.46E+03	8.95E+03
715	1.89E+03	3.28E+03	5.45E+03	8.87E+03
715.5	1.85E+03	3.27E+03	5.40E+03	8.78E+03
716	1.83E+03	3.26E+03	5.38E+03	8.69E+03
716.5	1.82E+03	3.26E+03	5.33E+03	8.63E+03
717	1.81E+03	3.24E+03	5.21E+03	8.58E+03
717.5	1.78E+03	3.25E+03	5.13E+03	8.53E+03
718	1.75E+03	3.28E+03	5.04E+03	8.47E+03
718.5	1.73E+03	3.28E+03	4.97E+03	8.41E+03
719	1.70E+03	3.23E+03	4.93E+03	8.36E+03
719.5	1.68E+03	3.17E+03	4.94E+03	8.32E+03
720	1.68E+03	3.11E+03	4.99E+03	8.29E+03
720.5	1.70E+03	3.06E+03	5.02E+03	8.22E+03
721	1.71E+03	3.03E+03	4.99E+03	8.13E+03
721.5	1.73E+03	3.01E+03	4.92E+03	8.04E+03
722	1.75E+03	2.99E+03	4.83E+03	7.96E+03
722.5	1.75E+03	2.98E+03	4.74E+03	7.89E+03
723	1.74E+03	2.97E+03	4.71E+03	7.83E+03
723.5	1.73E+03	2.95E+03	4.69E+03	7.74E+03
724	1.71E+03	2.93E+03	4.66E+03	7.64E+03
724.5	1.68E+03	2.90E+03	4.61E+03	7.56E+03
725	1.66E+03	2.85E+03	4.57E+03	7.49E+03
725.5	1.64E+03	2.79E+03	4.49E+03	7.42E+03
726	1.63E+03	2.75E+03	4.43E+03	7.37E+03
726.5	1.62E+03	2.73E+03	4.42E+03	7.32E+03
727	1.60E+03	2.75E+03	4.43E+03	7.28E+03
727.5	1.57E+03	2.76E+03	4.43E+03	7.26E+03
728	1.56E+03	2.71E+03	4.38E+03	7.19E+03
728.5	1.55E+03	2.67E+03	4.34E+03	7.11E+03
729	1.55E+03	2.62E+03	4.28E+03	7.02E+03
729.5	1.57E+03	2.60E+03	4.22E+03	6.96E+03
730	1.55E+03	2.61E+03	4.22E+03	6.93E+03
730.5	1.52E+03	2.59E+03	4.20E+03	6.89E+03
731	1.51E+03	2.57E+03	4.16E+03	6.83E+03
731.5	1.50E+03	2.58E+03	4.13E+03	6.76E+03
732	1.50E+03	2.58E+03	4.09E+03	6.67E+03
732.5	1.50E+03	2.58E+03	4.04E+03	6.60E+03
733	1.46E+03	2.55E+03	3.98E+03	6.53E+03
733.5	1.40E+03	2.49E+03	3.96E+03	6.44E+03
734	1.36E+03	2.45E+03	3.91E+03	6.39E+03
734.5	1.34E+03	2.44E+03	3.89E+03	6.38E+03
735	1.34E+03	2.43E+03	3.85E+03	6.33E+03
735.5	1.36E+03	2.39E+03	3.78E+03	6.24E+03
736	1.36E+03	2.35E+03	3.76E+03	6.18E+03
736.5	1.34E+03	2.29E+03	3.72E+03	6.11E+03
737	1.34E+03	2.25E+03	3.68E+03	6.07E+03
737.5	1.34E+03	2.24E+03	3.68E+03	6.01E+03
738	1.32E+03	2.24E+03	3.62E+03	5.93E+03
738.5	1.31E+03	2.20E+03	3.58E+03	5.84E+03
739	1.30E+03	2.18E+03	3.55E+03	5.77E+03
739.5	1.27E+03	2.17E+03	3.50E+03	5.74E+03
740	1.27E+03	2.16E+03	3.47E+03	5.70E+03
740.5	1.27E+03	2.18E+03	3.42E+03	5.64E+03
741	1.27E+03	2.18E+03	3.39E+03	5.58E+03
741.5	1.27E+03	2.15E+03	3.36E+03	5.54E+03
742	1.25E+03	2.10E+03	3.29E+03	5.50E+03
742.5	1.24E+03	2.06E+03	3.25E+03	5.45E+03
743	1.23E+03	2.04E+03	3.23E+03	5.39E+03
743.5	1.20E+03	2.02E+03	3.19E+03	5.32E+03
744	1.19E+03	2.04E+03	3.16E+03	5.22E+03
744.5	1.17E+03	2.04E+03	3.14E+03	5.15E+03
745	1.17E+03	2.02E+03	3.09E+03	5.11E+03
745.5	1.17E+03	2.00E+03	3.07E+03	5.08E+03
746	1.16E+03	1.96E+03	3.06E+03	5.06E+03
746.5	1.18E+03	1.92E+03	3.06E+03	5.03E+03
747	1.18E+03	1.87E+03	3.04E+03	4.95E+03
747.5	1.18E+03	1.86E+03	3.01E+03	4.88E+03
748	1.17E+03	1.85E+03	2.97E+03	4.84E+03
748.5	1.15E+03	1.83E+03	2.92E+03	4.84E+03
749	1.14E+03	1.85E+03	2.90E+03	4.81E+03
749.5	1.13E+03	1.85E+03	2.87E+03	4.74E+03
750	1.11E+03	1.83E+03	2.88E+03	4.67E+03
750.5	1.10E+03	1.81E+03	2.87E+03	4.57E+03
751	1.10E+03	1.79E+03	2.82E+03	4.51E+03
751.5	1.08E+03	1.78E+03	2.77E+03	4.49E+03
752	1.06E+03	1.78E+03	2.72E+03	4.46E+03
752.5	1.05E+03	1.78E+03	2.68E+03	4.42E+03
753	1.01E+03	1.76E+03	2.67E+03	4.36E+03
753.5	1.01E+03	1.73E+03	2.67E+03	4.30E+03
754	1.03E+03	1.69E+03	2.63E+03	4.27E+03
754.5	1.04E+03	1.66E+03	2.61E+03	4.25E+03
755	1.04E+03	1.65E+03	2.59E+03	4.21E+03
755.5	1.03E+03	1.64E+03	2.55E+03	4.18E+03
756	1.02E+03	1.62E+03	2.52E+03	4.13E+03
756.5	9.92E+02	1.61E+03	2.50E+03	4.11E+03
757	9.70E+02	1.59E+03	2.47E+03	4.08E+03
757.5	9.51E+02	1.58E+03	2.44E+03	4.03E+03
758	9.15E+02	1.57E+03	2.42E+03	4.00E+03
758.5	9.04E+02	1.55E+03	2.41E+03	3.95E+03
759	8.95E+02	1.51E+03	2.41E+03	3.92E+03
759.5	8.73E+02	1.47E+03	2.41E+03	3.90E+03
760	8.62E+02	1.46E+03	2.40E+03	3.86E+03
760.5	8.56E+02	1.46E+03	2.37E+03	3.82E+03
761	8.61E+02	1.46E+03	2.32E+03	3.81E+03
761.5	8.71E+02	1.46E+03	2.28E+03	3.78E+03
762	8.97E+02	1.47E+03	2.28E+03	3.76E+03
762.5	8.91E+02	1.47E+03	2.27E+03	3.74E+03
763	8.72E+02	1.49E+03	2.25E+03	3.69E+03
763.5	8.65E+02	1.48E+03	2.24E+03	3.65E+03
764	8.31E+02	1.47E+03	2.20E+03	3.63E+03
764.5	8.18E+02	1.45E+03	2.15E+03	3.61E+03
765	8.21E+02	1.43E+03	2.17E+03	3.59E+03
765.5	8.21E+02	1.44E+03	2.20E+03	3.57E+03
766	8.23E+02	1.42E+03	2.21E+03	3.54E+03
766.5	8.23E+02	1.41E+03	2.21E+03	3.50E+03
767	8.19E+02	1.40E+03	2.16E+03	3.45E+03
767.5	8.24E+02	1.38E+03	2.14E+03	3.43E+03
768	8.34E+02	1.37E+03	2.12E+03	3.42E+03
768.5	8.30E+02	1.34E+03	2.10E+03	3.42E+03
769	8.14E+02	1.32E+03	2.07E+03	3.39E+03
769.5	7.83E+02	1.30E+03	2.04E+03	3.36E+03
770	7.65E+02	1.30E+03	2.02E+03	3.29E+03
770.5	7.55E+02	1.29E+03	2.01E+03	3.22E+03
771	7.45E+02	1.26E+03	2.02E+03	3.18E+03
771.5	7.28E+02	1.24E+03	2.02E+03	3.15E+03
772	7.18E+02	1.23E+03	2.00E+03	3.16E+03
772.5	6.98E+02	1.23E+03	1.98E+03	3.16E+03
773	7.01E+02	1.25E+03	1.94E+03	3.14E+03
773.5	7.15E+02	1.28E+03	1.90E+03	3.14E+03
774	7.20E+02	1.28E+03	1.86E+03	3.10E+03
774.5	7.29E+02	1.25E+03	1.86E+03	3.06E+03
775	7.28E+02	1.21E+03	1.87E+03	3.03E+03
775.5	7.25E+02	1.16E+03	1.87E+03	2.99E+03
776	7.38E+02	1.13E+03	1.86E+03	2.99E+03
776.5	7.35E+02	1.15E+03	1.85E+03	2.99E+03
777	7.46E+02	1.18E+03	1.85E+03	2.99E+03
777.5	7.57E+02	1.21E+03	1.86E+03	2.98E+03
778	7.44E+02	1.23E+03	1.89E+03	2.98E+03
778.5	7.39E+02	1.23E+03	1.90E+03	2.96E+03
779	7.38E+02	1.19E+03	1.88E+03	2.95E+03
779.5	7.23E+02	1.17E+03	1.88E+03	2.93E+03
780	7.05E+02	1.15E+03	1.85E+03	2.90E+03
780.5	6.88E+02	1.16E+03	1.82E+03	2.88E+03
781	6.72E+02	1.18E+03	1.81E+03	2.85E+03
781.5	6.66E+02	1.16E+03	1.76E+03	2.82E+03
782	6.71E+02	1.15E+03	1.75E+03	2.78E+03
782.5	6.84E+02	1.13E+03	1.73E+03	2.74E+03
783	6.69E+02	1.12E+03	1.71E+03	2.74E+03
783.5	6.67E+02	1.14E+03	1.74E+03	2.75E+03
784	6.65E+02	1.14E+03	1.73E+03	2.78E+03
784.5	6.44E+02	1.14E+03	1.71E+03	2.79E+03
785	6.65E+02	1.15E+03	1.70E+03	2.76E+03
785.5	7.03E+02	1.15E+03	1.69E+03	2.69E+03
786	7.28E+02	1.14E+03	1.69E+03	2.64E+03
786.5	7.44E+02	1.13E+03	1.70E+03	2.61E+03
787	7.26E+02	1.09E+03	1.68E+03	2.60E+03
787.5	6.85E+02	1.05E+03	1.64E+03	2.60E+03
788	6.55E+02	1.04E+03	1.61E+03	2.59E+03
788.5	6.62E+02	1.03E+03	1.58E+03	2.57E+03
789	6.56E+02	1.05E+03	1.56E+03	2.57E+03
789.5	6.43E+02	1.04E+03	1.54E+03	2.56E+03
790	6.31E+02	1.03E+03	1.53E+03	2.57E+03
790.5	6.02E+02	1.02E+03	1.53E+03	2.57E+03
791	6.13E+02	1.01E+03	1.52E+03	2.56E+03
791.5	6.25E+02	1.04E+03	1.53E+03	2.56E+03
792	6.28E+02	1.03E+03	1.53E+03	2.54E+03
792.5	6.30E+02	1.02E+03	1.53E+03	2.51E+03
793	6.08E+02	9.99E+02	1.53E+03	2.50E+03
793.5	5.92E+02	9.76E+02	1.54E+03	2.48E+03
794	5.80E+02	9.77E+02	1.55E+03	2.48E+03
794.5	5.79E+02	9.80E+02	1.54E+03	2.48E+03
795	5.95E+02	9.85E+02	1.54E+03	2.49E+03
795.5	5.92E+02	9.77E+02	1.53E+03	2.46E+03
796	5.96E+02	9.65E+02	1.49E+03	2.42E+03
796.5	6.17E+02	9.78E+02	1.46E+03	2.37E+03
797	6.27E+02	9.88E+02	1.44E+03	2.35E+03
797.5	6.46E+02	9.95E+02	1.44E+03	2.36E+03
798	6.69E+02	9.96E+02	1.44E+03	2.40E+03
798.5	6.36E+02	9.74E+02	1.49E+03	2.43E+03
799	6.06E+02	9.52E+02	1.52E+03	2.45E+03
799.5	5.95E+02	9.51E+02	1.53E+03	2.44E+03
800	5.81E+02	9.48E+02	1.53E+03	2.40E+03
800.5	5.93E+02	9.43E+02	1.52E+03	2.37E+03
801	6.03E+02	9.42E+02	1.50E+03	2.31E+03
801.5	6.13E+02	9.34E+02	1.48E+03	2.28E+03
802	6.16E+02	9.09E+02	1.47E+03	2.26E+03
802.5	6.00E+02	8.92E+02	1.43E+03	2.25E+03
803	5.89E+02	8.94E+02	1.40E+03	2.24E+03
803.5	5.79E+02	8.86E+02	1.39E+03	2.22E+03
804	5.72E+02	8.99E+02	1.37E+03	2.22E+03
804.5	5.82E+02	9.17E+02	1.37E+03	2.23E+03
805	5.73E+02	9.21E+02	1.36E+03	2.20E+03
805.5	5.60E+02	9.20E+02	1.35E+03	2.21E+03
806	5.47E+02	8.99E+02	1.37E+03	2.19E+03
806.5	5.24E+02	8.83E+02	1.36E+03	2.15E+03
807	5.04E+02	8.65E+02	1.36E+03	2.14E+03
807.5	5.05E+02	8.48E+02	1.36E+03	2.14E+03
808	5.23E+02	8.67E+02	1.34E+03	2.15E+03
808.5	5.35E+02	8.77E+02	1.34E+03	2.15E+03
809	5.47E+02	8.93E+02	1.34E+03	2.15E+03
809.5	5.48E+02	9.00E+02	1.36E+03	2.12E+03
810	5.26E+02	9.01E+02	1.35E+03	2.07E+03
810.5	5.04E+02	9.09E+02	1.35E+03	2.05E+03
811	5.16E+02	8.98E+02	1.33E+03	2.04E+03
811.5	5.24E+02	8.91E+02	1.32E+03	2.04E+03
812	5.28E+02	8.81E+02	1.30E+03	2.05E+03
812.5	5.31E+02	8.52E+02	1.26E+03	2.04E+03
813	5.32E+02	8.32E+02	1.24E+03	2.06E+03
813.5	5.24E+02	8.38E+02	1.26E+03	2.05E+03
814	5.36E+02	8.34E+02	1.29E+03	2.02E+03
814.5	5.39E+02	8.26E+02	1.30E+03	2.00E+03
815	5.12E+02	8.27E+02	1.28E+03	1.96E+03
815.5	4.83E+02	7.96E+02	1.23E+03	1.93E+03
816	4.69E+02	7.85E+02	1.20E+03	1.94E+03
816.5	4.72E+02	8.05E+02	1.19E+03	1.95E+03
817	4.85E+02	8.04E+02	1.20E+03	1.94E+03
817.5	5.01E+02	8.07E+02	1.22E+03	1.94E+03
818	5.10E+02	8.26E+02	1.23E+03	1.92E+03
818.5	4.85E+02	8.32E+02	1.22E+03	1.89E+03
819	4.86E+02	8.29E+02	1.20E+03	1.88E+03
819.5	5.05E+02	8.22E+02	1.18E+03	1.86E+03
820	5.04E+02	7.98E+02	1.14E+03	1.84E+03
820.5	4.81E+02	7.59E+02	1.12E+03	1.84E+03
821	4.69E+02	7.59E+02	1.15E+03	1.85E+03
821.5	4.64E+02	7.79E+02	1.17E+03	1.87E+03
822	4.58E+02	7.90E+02	1.18E+03	1.87E+03
822.5	4.75E+02	8.08E+02	1.16E+03	1.87E+03
823	4.82E+02	7.97E+02	1.13E+03	1.86E+03
823.5	4.51E+02	7.61E+02	1.11E+03	1.85E+03
824	4.60E+02	7.48E+02	1.09E+03	1.84E+03
824.5	4.59E+02	7.20E+02	1.10E+03	1.85E+03
825	4.57E+02	7.15E+02	1.13E+03	1.84E+03
825.5	4.61E+02	7.31E+02	1.14E+03	1.80E+03
826	4.58E+02	7.33E+02	1.15E+03	1.78E+03
826.5	4.64E+02	7.55E+02	1.14E+03	1.74E+03
827	4.75E+02	7.62E+02	1.12E+03	1.71E+03
827.5	4.88E+02	7.55E+02	1.10E+03	1.71E+03
828	4.81E+02	7.52E+02	1.07E+03	1.71E+03
828.5	4.79E+02	7.47E+02	1.09E+03	1.69E+03
829	4.68E+02	7.38E+02	1.08E+03	1.68E+03
829.5	4.71E+02	7.46E+02	1.05E+03	1.66E+03
830	4.76E+02	7.48E+02	1.05E+03	1.64E+03
830.5	4.68E+02	7.38E+02	1.02E+03	1.62E+03
831	4.63E+02	7.16E+02	1.01E+03	1.60E+03
831.5	4.53E+02	7.08E+02	1.04E+03	1.59E+03
832	4.47E+02	7.11E+02	1.04E+03	1.58E+03
832.5	4.30E+02	7.14E+02	1.05E+03	1.57E+03
833	4.13E+02	7.17E+02	1.03E+03	1.56E+03
833.5	3.96E+02	6.99E+02	1.02E+03	1.56E+03
834	3.75E+02	6.70E+02	1.01E+03	1.52E+03
834.5	3.76E+02	6.55E+02	1.01E+03	1.52E+03
835	3.73E+02	6.50E+02	1.03E+03	1.52E+03
835.5	3.81E+02	6.57E+02	1.04E+03	1.54E+03
836	4.05E+02	6.51E+02	1.02E+03	1.54E+03
836.5	4.06E+02	6.37E+02	1.01E+03	1.52E+03
837	4.06E+02	6.50E+02	1.02E+03	1.51E+03
837.5	4.16E+02	6.27E+02	9.97E+02	1.46E+03
838	4.04E+02	6.16E+02	9.92E+02	1.43E+03
838.5	3.91E+02	6.11E+02	9.63E+02	1.41E+03
839	3.96E+02	5.78E+02	9.05E+02	1.38E+03
839.5	3.70E+02	5.82E+02	8.91E+02	1.39E+03
840	3.57E+02	6.00E+02	8.83E+02	1.38E+03
840.5	3.50E+02	6.11E+02	8.89E+02	1.38E+03
841	3.41E+02	6.11E+02	9.12E+02	1.40E+03
841.5	3.31E+02	6.05E+02	8.99E+02	1.38E+03
842	3.27E+02	5.98E+02	8.93E+02	1.36E+03
842.5	3.43E+02	6.14E+02	8.95E+02	1.34E+03
843	3.62E+02	6.23E+02	9.02E+02	1.31E+03
843.5	3.86E+02	6.31E+02	9.12E+02	1.32E+03
844	4.07E+02	6.30E+02	9.03E+02	1.33E+03
844.5	4.19E+02	6.00E+02	8.88E+02	1.32E+03
845	4.20E+02	5.81E+02	8.70E+02	1.32E+03
845.5	3.93E+02	5.55E+02	8.67E+02	1.29E+03
846	3.71E+02	5.38E+02	8.64E+02	1.26E+03
846.5	3.41E+02	5.37E+02	8.68E+02	1.26E+03
847	3.21E+02	5.29E+02	8.50E+02	1.27E+03
847.5	3.34E+02	5.36E+02	8.20E+02	1.29E+03
848	3.42E+02	5.40E+02	8.26E+02	1.31E+03
848.5	3.61E+02	5.21E+02	8.02E+02	1.31E+03
849	3.69E+02	5.16E+02	7.87E+02	1.28E+03
849.5	3.63E+02	5.23E+02	7.89E+02	1.24E+03
850	3.71E+02	5.29E+02	7.62E+02	1.20E+03
850.5	3.54E+02	5.47E+02	7.50E+02	1.17E+03
851	3.47E+02	5.44E+02	7.67E+02	1.15E+03
851.5	3.37E+02	5.38E+02	7.68E+02	1.15E+03
852	3.23E+02	5.41E+02	7.87E+02	1.16E+03
852.5	3.16E+02	5.29E+02	7.90E+02	1.17E+03
853	3.18E+02	5.37E+02	7.69E+02	1.18E+03
853.5	3.27E+02	5.63E+02	7.63E+02	1.20E+03
854	3.27E+02	5.81E+02	7.54E+02	1.17E+03
854.5	3.19E+02	5.92E+02	7.41E+02	1.17E+03
855	3.12E+02	5.91E+02	7.43E+02	1.17E+03
855.5	3.08E+02	5.74E+02	7.49E+02	1.15E+03
856	3.05E+02	5.58E+02	7.43E+02	1.13E+03
856.5	3.05E+02	5.56E+02	7.27E+02	1.12E+03
857	2.82E+02	5.41E+02	7.03E+02	1.07E+03
857.5	2.61E+02	5.35E+02	6.68E+02	1.04E+03
858	2.42E+02	5.10E+02	6.56E+02	1.02E+03
858.5	2.25E+02	4.82E+02	6.63E+02	1.02E+03
859	2.46E+02	4.67E+02	6.87E+02	1.03E+03
859.5	2.75E+02	4.54E+02	7.21E+02	1.03E+03
860	2.89E+02	4.59E+02	7.33E+02	1.04E+03
860.5	2.97E+02	4.65E+02	7.27E+02	1.05E+03
861	2.86E+02	4.65E+02	7.13E+02	1.05E+03
861.5	2.55E+02	4.71E+02	6.92E+02	1.04E+03
862	2.39E+02	4.73E+02	6.73E+02	1.04E+03
862.5	2.16E+02	4.51E+02	6.76E+02	1.03E+03
863	2.19E+02	4.58E+02	6.67E+02	1.01E+03
863.5	2.37E+02	4.65E+02	6.55E+02	9.99E+02
864	2.48E+02	4.48E+02	6.41E+02	9.83E+02
864.5	2.88E+02	4.36E+02	6.30E+02	9.51E+02
865	2.96E+02	4.09E+02	6.38E+02	9.50E+02
865.5	2.75E+02	3.96E+02	6.60E+02	9.51E+02
866	2.57E+02	4.09E+02	6.65E+02	9.41E+02
866.5	2.40E+02	4.36E+02	6.62E+02	9.57E+02
867	2.39E+02	4.71E+02	6.66E+02	9.75E+02
867.5	2.30E+02	4.67E+02	6.56E+02	9.64E+02
868	2.43E+02	4.43E+02	6.37E+02	9.60E+02
868.5	2.49E+02	3.96E+02	6.28E+02	9.29E+02
869	2.49E+02	3.56E+02	6.00E+02	8.86E+02
869.5	2.67E+02	3.36E+02	5.68E+02	8.66E+02
870	2.72E+02	3.46E+02	5.82E+02	8.83E+02
870.5	2.50E+02	3.80E+02	5.91E+02	8.91E+02
871	2.33E+02	4.12E+02	5.79E+02	9.05E+02
871.5	2.17E+02	4.21E+02	5.61E+02	9.06E+02
872	2.10E+02	4.15E+02	5.41E+02	8.85E+02
872.5	2.11E+02	3.94E+02	5.20E+02	8.74E+02
873	2.25E+02	3.81E+02	5.40E+02	8.67E+02
873.5	2.36E+02	3.72E+02	5.70E+02	8.63E+02
874	2.33E+02	3.62E+02	5.79E+02	8.68E+02
874.5	2.49E+02	3.48E+02	5.75E+02	8.84E+02
875	2.69E+02	3.38E+02	5.57E+02	8.98E+02
875.5	2.72E+02	3.40E+02	5.48E+02	9.12E+02
876	2.76E+02	3.29E+02	5.51E+02	9.05E+02
876.5	2.67E+02	3.31E+02	5.71E+02	8.80E+02
877	2.48E+02	3.39E+02	5.90E+02	8.57E+02
877.5	2.26E+02	3.29E+02	6.04E+02	8.34E+02
878	2.31E+02	3.38E+02	5.98E+02	8.30E+02
878.5	2.28E+02	3.48E+02	5.77E+02	8.47E+02
879	2.50E+02	3.51E+02	5.62E+02	8.63E+02
879.5	2.52E+02	3.73E+02	5.49E+02	8.78E+02
880	2.36E+02	3.78E+02	5.52E+02	8.69E+02
880.5	2.29E+02	3.77E+02	5.52E+02	8.51E+02
881	2.13E+02	3.70E+02	5.60E+02	8.28E+02
881.5	1.89E+02	3.56E+02	5.41E+02	8.08E+02
882	1.87E+02	3.51E+02	5.03E+02	7.94E+02
882.5	2.08E+02	3.56E+02	4.99E+02	7.86E+02
883	2.28E+02	3.75E+02	5.03E+02	7.92E+02
883.5	2.48E+02	3.84E+02	5.17E+02	8.01E+02
884	2.40E+02	3.97E+02	5.39E+02	8.01E+02
884.5	2.04E+02	4.23E+02	5.49E+02	8.05E+02
885	1.72E+02	4.16E+02	5.49E+02	8.10E+02
885.5	1.36E+02	4.12E+02	5.22E+02	8.03E+02
886	1.26E+02	4.04E+02	5.15E+02	7.97E+02
886.5	1.50E+02	3.78E+02	5.25E+02	7.94E+02
887	1.64E+02	3.48E+02	5.09E+02	7.96E+02
887.5	1.78E+02	3.27E+02	5.03E+02	7.94E+02
888	1.95E+02	3.05E+02	5.13E+02	7.80E+02
888.5	2.00E+02	2.98E+02	4.79E+02	7.73E+02
889	2.03E+02	3.10E+02	4.81E+02	7.60E+02
889.5	1.98E+02	3.36E+02	5.04E+02	7.45E+02
890	2.04E+02	3.48E+02	4.99E+02	7.36E+02
890.5	2.13E+02	3.36E+02	5.12E+02	7.40E+02
891	2.12E+02	3.33E+02	5.05E+02	7.58E+02
891.5	2.10E+02	3.23E+02	4.97E+02	7.38E+02
892	2.03E+02	3.18E+02	4.81E+02	7.26E+02
892.5	1.93E+02	3.32E+02	4.60E+02	7.17E+02
893	1.91E+02	3.46E+02	4.45E+02	7.11E+02
893.5	2.12E+02	3.44E+02	4.38E+02	7.31E+02
894	2.31E+02	3.49E+02	4.41E+02	7.41E+02
894.5	2.40E+02	3.44E+02	4.37E+02	7.61E+02
895	2.40E+02	3.33E+02	4.45E+02	7.59E+02
895.5	2.28E+02	3.32E+02	4.56E+02	7.34E+02
896	2.23E+02	3.14E+02	4.50E+02	7.00E+02
896.5	2.33E+02	3.02E+02	4.65E+02	6.77E+02
897	2.40E+02	3.02E+02	4.74E+02	6.62E+02
897.5	2.39E+02	2.87E+02	4.58E+02	6.63E+02
898	2.26E+02	3.01E+02	4.66E+02	6.68E+02
898.5	2.08E+02	3.21E+02	4.72E+02	6.76E+02
899	1.86E+02	3.17E+02	4.57E+02	6.60E+02
899.5	1.78E+02	3.18E+02	4.63E+02	6.54E+02
900	1.97E+02	3.16E+02	4.61E+02	6.50E+02
900.5	1.93E+02	2.94E+02	4.21E+02	6.48E+02
901	2.15E+02	3.07E+02	4.27E+02	6.54E+02
901.5	2.22E+02	3.23E+02	4.35E+02	6.64E+02
902	2.20E+02	3.24E+02	4.27E+02	6.57E+02
902.5	2.08E+02	3.13E+02	4.26E+02	6.49E+02
903	2.09E+02	3.08E+02	4.41E+02	6.56E+02
903.5	2.15E+02	2.94E+02	4.28E+02	6.87E+02
904	1.91E+02	2.78E+02	4.14E+02	6.80E+02
904.5	1.85E+02	2.90E+02	3.98E+02	7.04E+02
905	1.57E+02	2.76E+02	4.08E+02	7.09E+02
905.5	1.38E+02	2.49E+02	4.15E+02	6.83E+02
906	1.28E+02	2.22E+02	4.16E+02	6.58E+02
906.5	1.06E+02	2.07E+02	4.25E+02	6.33E+02
907	1.16E+02	2.17E+02	4.18E+02	6.11E+02
907.5	1.35E+02	2.33E+02	3.97E+02	5.88E+02
908	1.44E+02	2.42E+02	4.00E+02	5.70E+02
908.5	1.62E+02	2.52E+02	4.12E+02	5.61E+02
909	1.78E+02	2.66E+02	4.09E+02	5.59E+02
909.5	1.79E+02	2.76E+02	4.01E+02	5.75E+02
910	1.59E+02	2.88E+02	3.86E+02	5.91E+02
910.5	1.41E+02	3.04E+02	3.53E+02	6.05E+02
911	1.35E+02	3.13E+02	3.45E+02	5.99E+02
911.5	1.50E+02	3.19E+02	3.51E+02	5.94E+02
912	1.85E+02	3.41E+02	3.55E+02	5.89E+02
912.5	2.32E+02	3.57E+02	3.78E+02	5.93E+02
913	2.57E+02	3.42E+02	4.22E+02	6.21E+02
913.5	2.44E+02	3.36E+02	4.29E+02	6.35E+02
914	2.32E+02	3.26E+02	4.59E+02	6.50E+02
914.5	2.21E+02	3.19E+02	4.89E+02	6.71E+02
915	2.10E+02	3.05E+02	4.81E+02	6.75E+02
915.5	2.08E+02	3.10E+02	4.91E+02	6.84E+02
916	2.11E+02	3.24E+02	4.92E+02	7.09E+02
916.5	1.92E+02	3.35E+02	4.70E+02	7.07E+02
917	1.84E+02	3.31E+02	4.72E+02	7.18E+02
917.5	2.02E+02	3.29E+02	4.79E+02	7.07E+02
918	2.09E+02	3.14E+02	4.78E+02	6.82E+02
918.5	2.11E+02	2.89E+02	4.82E+02	6.65E+02
919	2.07E+02	2.70E+02	4.93E+02	6.55E+02
919.5	2.06E+02	2.99E+02	5.17E+02	6.64E+02
920	1.85E+02	3.29E+02	5.25E+02	6.77E+02
920.5	1.66E+02	3.54E+02	5.30E+02	6.97E+02
921	1.67E+02	3.89E+02	5.23E+02	7.15E+02
921.5	1.72E+02	3.94E+02	5.09E+02	7.44E+02
922	1.70E+02	3.54E+02	5.09E+02	7.52E+02
922.5	1.80E+02	3.25E+02	5.09E+02	7.54E+02
923	1.97E+02	2.97E+02	5.15E+02	7.48E+02
923.5	1.93E+02	2.82E+02	5.09E+02	7.22E+02
924	1.78E+02	2.93E+02	4.99E+02	7.13E+02
924.5	1.78E+02	3.15E+02	4.82E+02	7.08E+02
925	1.70E+02	3.39E+02	4.63E+02	6.99E+02
925.5	1.64E+02	3.44E+02	4.66E+02	7.01E+02
926	1.86E+02	3.52E+02	4.47E+02	6.90E+02
926.5	1.98E+02	3.42E+02	4.34E+02	6.99E+02
927	2.02E+02	3.26E+02	4.35E+02	7.13E+02
927.5	2.03E+02	3.15E+02	4.24E+02	7.18E+02
928	1.83E+02	2.94E+02	4.01E+02	7.08E+02
928.5	1.71E+02	2.69E+02	3.88E+02	6.89E+02
929	1.70E+02	2.48E+02	3.73E+02	6.62E+02
929.5	1.73E+02	2.30E+02	3.58E+02	6.17E+02
930	1.83E+02	2.37E+02	3.66E+02	5.79E+02
930.5	2.03E+02	2.65E+02	3.70E+02	5.60E+02
931	1.91E+02	2.99E+02	3.68E+02	5.47E+02
931.5	1.75E+02	3.15E+02	3.66E+02	5.46E+02
932	1.71E+02	3.04E+02	3.55E+02	5.71E+02
932.5	1.58E+02	2.99E+02	3.60E+02	5.93E+02
933	1.62E+02	2.95E+02	3.72E+02	6.03E+02
933.5	1.70E+02	2.71E+02	3.71E+02	6.00E+02
934	1.56E+02	2.71E+02	3.71E+02	5.97E+02
934.5	1.39E+02	2.53E+02	3.59E+02	5.61E+02
935	1.31E+02	2.18E+02	3.42E+02	5.16E+02
935.5	1.31E+02	1.85E+02	3.33E+02	4.93E+02
936	1.39E+02	1.69E+02	3.28E+02	4.52E+02
936.5	1.43E+02	1.57E+02	3.36E+02	4.37E+02
937	1.57E+02	1.62E+02	3.28E+02	4.44E+02
937.5	1.53E+02	1.78E+02	3.25E+02	4.52E+02
938	1.44E+02	2.08E+02	3.17E+02	4.58E+02
938.5	1.49E+02	2.33E+02	3.04E+02	4.56E+02
939	1.52E+02	2.55E+02	3.11E+02	4.57E+02
939.5	1.46E+02	2.67E+02	3.16E+02	4.40E+02
940	1.61E+02	2.51E+02	3.11E+02	4.24E+02
940.5	1.66E+02	2.26E+02	3.05E+02	4.53E+02
941	1.61E+02	1.94E+02	2.89E+02	4.65E+02
941.5	1.50E+02	1.76E+02	2.75E+02	4.67E+02
942	1.37E+02	1.57E+02	2.73E+02	4.81E+02
942.5	1.29E+02	1.40E+02	2.69E+02	4.62E+02
943	1.16E+02	1.62E+02	2.72E+02	4.40E+02
943.5	1.16E+02	1.69E+02	2.82E+02	4.30E+02
944	1.00E+02	1.74E+02	2.66E+02	4.03E+02
944.5	9.43E+01	1.95E+02	2.58E+02	3.87E+02
945	9.14E+01	1.95E+02	2.69E+02	3.74E+02
945.5	8.48E+01	1.98E+02	2.89E+02	3.64E+02
946	7.79E+01	2.06E+02	2.97E+02	3.61E+02
946.5	6.34E+01	1.73E+02	3.01E+02	3.48E+02
947	5.67E+01	1.74E+02	2.85E+02	3.36E+02
947.5	5.11E+01	1.55E+02	2.46E+02	3.21E+02
948	5.91E+01	1.25E+02	2.20E+02	3.30E+02
948.5	7.66E+01	1.28E+02	2.15E+02	3.56E+02
949	1.14E+02	1.39E+02	2.21E+02	3.71E+02
949.5	1.49E+02	1.58E+02	2.10E+02	3.88E+02
950	1.82E+02	2.03E+02	2.05E+02	3.93E+02
950.5	2.11E+02	2.17E+02	1.96E+02	3.89E+02
951	2.06E+02	2.24E+02	1.98E+02	4.03E+02
951.5	1.81E+02	2.16E+02	1.95E+02	4.12E+02
952	1.58E+02	1.86E+02	1.99E+02	4.33E+02
952.5	1.30E+02	1.66E+02	1.99E+02	4.43E+02
953	1.19E+02	1.54E+02	1.98E+02	4.37E+02
953.5	9.73E+01	1.34E+02	1.89E+02	4.09E+02
954	7.71E+01	1.29E+02	1.81E+02	3.80E+02
954.5	6.58E+01	1.14E+02	1.81E+02	3.38E+02
955	7.46E+01	1.12E+02	1.74E+02	3.11E+02
955.5	7.68E+01	1.11E+02	1.82E+02	3.11E+02
956	9.24E+01	1.23E+02	1.97E+02	3.13E+02
956.5	1.12E+02	1.35E+02	2.07E+02	3.07E+02
957	1.10E+02	1.28E+02	2.06E+02	3.09E+02
957.5	1.23E+02	1.29E+02	1.98E+02	3.01E+02
958	1.28E+02	1.29E+02	2.03E+02	2.99E+02
958.5	1.21E+02	1.26E+02	2.10E+02	3.12E+02
959	1.13E+02	1.28E+02	2.17E+02	3.13E+02
959.5	1.00E+02	1.29E+02	2.14E+02	2.87E+02
960	8.08E+01	1.16E+02	2.27E+02	2.59E+02
960.5	7.83E+01	1.16E+02	2.23E+02	2.34E+02
961	7.61E+01	1.16E+02	2.26E+02	2.08E+02
961.5	6.48E+01	1.19E+02	2.14E+02	2.01E+02
962	6.50E+01	1.18E+02	2.10E+02	2.08E+02
962.5	7.83E+01	1.30E+02	1.91E+02	2.24E+02
963	7.47E+01	1.21E+02	1.81E+02	2.38E+02
963.5	8.08E+01	1.12E+02	1.81E+02	2.53E+02
964	8.28E+01	1.23E+02	1.76E+02	2.76E+02
964.5	5.32E+01	1.25E+02	1.74E+02	2.67E+02
965	1.77E+01	1.13E+02	1.66E+02	2.48E+02
965.5	2.28E+01	1.14E+02	1.62E+02	2.41E+02
966	1.90E+01	1.08E+02	1.50E+02	2.34E+02
966.5	2.43E+01	9.62E+01	1.40E+02	2.25E+02
967	5.19E+01	8.85E+01	1.37E+02	2.33E+02
967.5	5.04E+01	9.56E+01	1.36E+02	2.53E+02
968	4.84E+01	1.08E+02	1.70E+02	2.65E+02
968.5	5.67E+01	1.30E+02	1.86E+02	2.72E+02
969	5.69E+01	1.32E+02	1.74E+02	2.58E+02
969.5	4.74E+01	1.36E+02	1.58E+02	2.42E+02
970	4.24E+01	1.37E+02	1.34E+02	2.14E+02
970.5	3.11E+01	1.13E+02	1.09E+02	2.06E+02
971	2.47E+01	9.71E+01	1.33E+02	2.16E+02
971.5	3.08E+01	9.83E+01	1.48E+02	2.16E+02
972	4.20E+01	7.36E+01	1.44E+02	2.07E+02
972.5	4.22E+01	6.40E+01	1.35E+02	1.76E+02
973	6.05E+01	5.44E+01	1.17E+02	1.69E+02
973.5	8.30E+01	5.71E+01	8.89E+01	1.66E+02
974	8.79E+01	5.93E+01	9.49E+01	1.80E+02
974.5	8.68E+01	6.75E+01	1.05E+02	2.12E+02
975	6.72E+01	6.88E+01	8.66E+01	2.14E+02
975.5	2.05E+01	5.92E+01	8.49E+01	2.14E+02
976	2.26E+01	5.23E+01	8.53E+01	1.89E+02
976.5	3.20E+01	6.34E+01	8.84E+01	1.93E+02
977	4.69E+01	6.67E+01	9.51E+01	1.97E+02
977.5	6.59E+01	6.74E+01	1.13E+02	2.00E+02
978	7.28E+01	5.96E+01	1.15E+02	2.02E+02
978.5	6.04E+01	4.58E+01	1.16E+02	1.96E+02
979	5.61E+01	5.05E+01	1.11E+02	1.81E+02
979.5	5.20E+01	6.26E+01	1.06E+02	1.62E+02
980	4.43E+01	8.39E+01	1.07E+02	1.38E+02
980.5	3.32E+01	9.23E+01	1.09E+02	1.37E+02
981	2.71E+01	8.22E+01	1.19E+02	1.25E+02
981.5	1.56E+01	6.88E+01	1.20E+02	1.13E+02
982	1.89E+01	5.75E+01	1.23E+02	1.10E+02
982.5	1.44E+01	6.02E+01	1.38E+02	9.91E+01
983	3.49E+00	5.07E+01	1.38E+02	8.00E+01
983.5	7.72E+00	4.27E+01	1.50E+02	7.98E+01
984	6.44E+00	4.09E+01	1.72E+02	9.17E+01
984.5	3.63E+00	3.80E+01	1.71E+02	1.07E+02
985	1.01E+01	4.23E+01	1.46E+02	1.24E+02
985.5	1.35E+01	5.98E+01	1.30E+02	1.36E+02
986	2.29E+01	6.89E+01	1.31E+02	1.38E+02
986.5	2.81E+01	7.82E+01	1.14E+02	1.40E+02
987	2.69E+01	9.49E+01	1.16E+02	1.42E+02
987.5	2.49E+01	1.07E+02	1.24E+02	1.55E+02
988	2.59E+01	1.16E+02	1.04E+02	1.74E+02
988.5	1.83E+01	1.07E+02	8.73E+01	1.85E+02
989	2.07E+01	9.37E+01	7.97E+01	1.91E+02
989.5	3.36E+01	8.78E+01	6.63E+01	1.88E+02
990	3.38E+01	7.40E+01	6.09E+01	1.56E+02
990.5	2.77E+01	6.07E+01	4.66E+01	1.31E+02
991	3.38E+01	6.59E+01	2.62E+01	1.19E+02
991.5	3.19E+01	6.12E+01	1.43E+01	1.19E+02
992	2.53E+01	6.27E+01	1.68E+01	1.08E+02
992.5	2.41E+01	7.10E+01	2.31E+01	1.17E+02
993	1.96E+01	7.44E+01	4.32E+01	1.23E+02
993.5	1.03E+01	6.73E+01	6.48E+01	1.12E+02
994	1.07E+01	5.17E+01	7.48E+01	1.12E+02
994.5	2.09E+01	4.59E+01	8.42E+01	1.23E+02
995	3.68E+01	4.83E+01	7.90E+01	1.23E+02
995.5	4.88E+01	6.31E+01	8.72E+01	1.19E+02
996	4.50E+01	6.37E+01	8.04E+01	1.20E+02
996.5	3.72E+01	5.64E+01	8.25E+01	1.21E+02
997	2.82E+01	2.77E+01	8.76E+01	1.05E+02
997.5	2.41E+01	1.97E+01	9.69E+01	8.86E+01
998	3.76E+01	2.65E+01	1.08E+02	8.68E+01
998.5	3.11E+01	2.30E+01	1.06E+02	7.90E+01
999	2.74E+01	4.12E+01	8.96E+01	8.17E+01
999.5	1.28E+01	5.43E+01	6.88E+01	8.35E+01
1000	1.62E+01	4.72E+01	4.86E+01	8.85E+01
1000.5	1.55E+01	5.24E+01	5.29E+01	8.19E+01
1001	3.72E+01	6.94E+01	5.94E+01	8.88E+01
1001.5	6.48E+01	7.87E+01	6.00E+01	1.01E+02
1002	6.98E+01	6.61E+01	5.70E+01	9.26E+01
1002.5	7.84E+01	5.27E+01	3.83E+01	1.02E+02
1003	7.66E+01	3.63E+01	4.03E+01	1.10E+02
1003.5	7.10E+01	2.83E+01	6.09E+01	1.08E+02
1004	5.16E+01	2.94E+01	8.58E+01	1.25E+02
1004.5	4.04E+01	2.61E+01	8.72E+01	1.34E+02
1005	4.02E+01	2.58E+01	8.54E+01	1.20E+02
1005.5	4.26E+01	4.36E+01	7.22E+01	1.13E+02
1006	3.43E+01	5.49E+01	4.89E+01	9.11E+01
1006.5	2.41E+01	7.87E+01	3.92E+01	7.14E+01
1007	3.03E+01	9.54E+01	4.18E+01	7.59E+01
1007.5	3.41E+01	1.00E+02	1.78E+01	7.67E+01
1008	2.86E+01	6.91E+01	1.01E+01	7.05E+01
1008.5	4.12E+01	4.44E+01	2.02E+01	6.67E+01
1009	5.00E+01	1.64E+01	2.53E+01	6.83E+01
1009.5	4.43E+01	6.49E+00	3.79E+01	6.61E+01
1010	3.84E+01	1.90E+01	5.97E+01	5.31E+01
1010.5	4.98E+01	3.94E+01	6.55E+01	6.02E+01
1011	6.02E+01	5.61E+01	6.39E+01	6.16E+01
1011.5	4.48E+01	6.04E+01	6.98E+01	5.82E+01
1012	4.58E+01	5.84E+01	5.32E+01	5.82E+01
1012.5	4.72E+01	6.31E+01	5.55E+01	5.99E+01
1013	3.81E+01	8.12E+01	6.48E+01	5.55E+01
1013.5	4.09E+01	1.06E+02	6.56E+01	5.46E+01
1014	5.99E+01	1.27E+02	7.54E+01	5.53E+01
1014.5	5.66E+01	1.22E+02	7.87E+01	7.12E+01
1015	4.57E+01	1.03E+02	5.92E+01	7.62E+01
1015.5	2.84E+01	6.29E+01	3.77E+01	9.63E+01
1016	-1.65E+00	3.60E+01	2.41E+01	9.36E+01
1016.5	-2.25E+01	1.77E+01	1.29E+01	8.65E+01
1017	-1.68E+01	1.50E+01	-7.26E+00	7.05E+01
1017.5	-1.55E+00	1.88E+01	-5.82E+00	6.70E+01
1018	1.98E+01	3.83E+01	-3.46E+00	5.73E+01
1018.5	3.03E+01	5.90E+01	-2.43E+01	4.96E+01
1019	3.63E+01	6.62E+01	-2.02E+01	5.47E+01
1019.5	3.60E+01	8.38E+01	-9.23E+00	3.57E+01
1020	2.56E+01	7.51E+01	-1.72E+01	2.38E+01
1020.5	1.37E+01	5.21E+01	-1.90E+01	-1.74E+00
1021	-5.82E-01	1.67E+01	-4.44E+00	-2.15E+01
1021.5	5.05E+00	2.71E+00	-6.31E+00	-3.23E+01
1022	1.79E+01	7.76E+00	3.42E-01	-1.71E+01
1022.5	3.24E+01	1.85E+01	1.54E+01	4.60E+00
1023	5.84E+01	3.56E+01	2.84E+01	2.24E+01
1023.5	5.62E+01	5.76E+01	5.73E+01	5.50E+01
1024	3.61E+01	4.77E+01	4.95E+01	6.37E+01
1024.5	5.02E+00	3.10E+01	6.34E+01	5.29E+01
1025	6.34E+00	2.57E+01	6.00E+01	6.98E+01
1025.5	-9.92E+00	2.43E+01	5.36E+01	7.49E+01
1026	-1.88E+01	1.23E+01	4.31E+01	6.63E+01
1026.5	-1.79E+01	1.70E+01	4.98E+01	7.06E+01
1027	-2.20E+01	3.36E+01	5.22E+01	5.16E+01
1027.5	-8.03E+00	3.65E+01	4.60E+01	3.69E+01
1028	1.27E+01	4.57E+01	5.96E+01	3.97E+01
1028.5	2.46E+01	5.79E+01	5.18E+01	5.48E+01
1029	1.42E+01	5.04E+01	2.73E+01	4.54E+01
1029.5	-2.79E+00	7.14E+01	1.53E+01	7.05E+01
1030	-3.15E+01	8.07E+01	-1.40E+01	6.57E+01
1030.5	-4.51E+01	8.26E+01	-2.58E+01	5.51E+01
1031	-4.24E+01	8.44E+01	-8.38E+00	5.84E+01
1031.5	-3.88E+01	5.70E+01	7.39E+00	5.64E+01
1032	-2.95E+01	2.06E+01	2.90E+01	5.18E+01
1032.5	-4.26E-01	1.31E+00	3.20E+01	3.18E+01
1033	5.60E+00	-1.37E+01	3.91E+00	1.23E+01
1033.5	4.04E+01	-1.29E+01	-1.55E+01	-1.42E+01
1034	5.34E+01	-6.72E-01	-1.30E+01	-1.70E+01
1034.5	5.57E+01	1.87E+01	-4.23E+00	-1.20E+01
1035	5.70E+01	2.36E+01	1.93E+01	-2.89E+00
1035.5	4.61E+01	3.26E+01	4.41E+01	1.32E+01
1036	3.23E+01	4.37E+01	4.26E+01	2.95E+01
1036.5	1.97E+01	2.42E+01	2.70E+01	3.82E+01
1037	8.26E+00	2.04E+01	1.37E+01	5.50E+01
1037.5	5.11E+00	3.16E+01	7.84E+00	6.19E+01
1038	1.44E+01	3.11E+01	1.82E+00	6.46E+01
1038.5	2.22E+01	4.49E+01	1.30E+01	5.68E+01
1039	2.65E+01	6.10E+01	2.20E+01	5.15E+01
1039.5	2.34E+01	5.90E+01	2.18E+01	4.77E+01
1040	2.25E+01	5.44E+01	2.47E+01	5.24E+01
1040.5	1.32E+01	3.83E+01	2.62E+01	3.69E+01
1041	2.55E+00	3.82E+01	3.53E+01	2.71E+01
1041.5	6.76E+00	5.18E+01	4.92E+01	4.23E+01
1042	-1.24E+01	5.53E+01	5.73E+01	3.31E+01
1042.5	-1.99E+01	5.59E+01	5.55E+01	2.02E+01
1043	-2.95E+01	4.45E+01	4.43E+01	2.24E+01
1043.5	-3.75E+01	1.95E+01	1.10E+01	4.75E-01
1044	-4.51E+01	6.95E+00	-1.18E+01	-2.19E+01
1044.5	-3.82E+01	7.84E+00	-3.63E+01	-2.73E+01
1045	-2.57E+01	1.63E+01	-3.52E+01	-1.67E+01
1045.5	-1.64E+01	3.06E+01	-1.21E+01	-7.46E+00
1046	-2.17E+00	3.20E+01	-7.14E+00	3.87E+00
1046.5	1.27E+01	1.69E+01	-2.10E-01	1.71E+01
1047	6.34E+00	2.43E+00	1.18E+01	3.49E+01
1047.5	4.12E+00	-3.13E+00	1.16E+01	3.75E+01
1048	-1.41E+00	-6.35E+00	3.64E+01	4.29E+01
1048.5	-5.25E+00	1.58E+01	6.63E+01	4.56E+01
1049	-1.39E+01	3.98E+01	8.84E+01	3.55E+01
1049.5	-2.30E+01	4.52E+01	8.16E+01	1.55E+01
1050	-2.80E+01	4.87E+01	4.58E+01	2.37E+01
1050.5	-2.32E+01	4.86E+01	2.75E+01	3.93E+01
1051	-1.69E+01	3.50E+01	2.30E+01	6.17E+01
1051.5	-6.47E+00	2.14E+01	4.96E+01	7.66E+01
1052	8.65E-02	2.22E+01	7.36E+01	1.08E+02
1052.5	-2.09E-02	1.53E+01	8.60E+01	9.19E+01
1053	-4.54E+00	-3.63E+00	7.85E+01	7.08E+01
1053.5	-8.31E+00	-1.47E+01	5.26E+01	6.14E+01
1054	-5.58E+00	-2.01E+01	2.75E+01	4.12E+01
1054.5	7.15E+00	-2.41E+01	1.96E+01	3.71E+01
1055	4.30E+00	-1.00E+01	1.70E+01	4.47E+01
1055.5	-3.74E+00	-3.16E+00	5.32E+00	5.49E+01
1056	-1.18E+01	1.12E+01	1.22E+01	6.03E+01
1056.5	-1.06E+01	1.38E+01	2.65E+01	8.08E+01
1057	-1.63E+01	1.55E+01	3.26E+01	7.76E+01
1057.5	-9.63E+00	1.50E+01	2.65E+01	7.65E+01
1058	-5.29E+00	1.17E+01	1.98E+01	6.08E+01
1058.5	-1.61E+01	9.70E-01	4.85E+00	3.96E+01
1059	-2.36E+01	1.03E+00	5.78E+00	4.01E+01
1059.5	-3.12E+01	-7.01E+00	2.04E+01	3.41E+01
1060	-5.17E+01	-9.02E+00	2.87E+01	2.77E+01
1060.5	-5.64E+01	-9.47E+00	3.39E+01	2.69E+01
1061	-5.46E+01	1.36E+00	5.35E+01	3.05E+01
1061.5	-4.56E+01	7.96E+00	4.86E+01	2.28E+01
1062	-3.93E+01	2.50E+01	4.46E+01	3.82E+01
1062.5	-3.71E+01	2.91E+01	3.88E+01	4.09E+01
1063	-3.63E+01	3.02E+01	2.35E+01	2.04E+01
1063.5	-3.89E+01	2.65E+01	6.96E+00	5.92E+00
1064	-4.11E+01	1.32E+01	1.79E+00	3.99E+00
1064.5	-2.68E+01	1.10E+01	5.13E+00	-1.14E+01
1065	-1.01E+00	2.40E+01	-8.15E-01	3.56E+00
1065.5	9.33E+00	1.94E+01	-7.38E+00	2.83E+01
1066	1.60E+01	1.28E+01	-1.36E+01	2.60E+01
1066.5	2.63E+01	1.60E+01	-1.27E+01	3.49E+01
1067	1.69E+01	3.48E+00	-6.54E+00	5.41E+01
1067.5	9.79E+00	-6.63E+00	4.52E+00	5.64E+01
1068	6.34E+00	-4.31E+00	8.65E+00	5.41E+01
1068.5	-1.60E+00	-1.22E+01	1.99E+00	4.23E+01
1069	-1.11E+00	-1.79E+01	-2.64E+00	2.70E+01
1069.5	1.00E+01	-1.88E+01	-1.16E+01	1.64E+01
1070	1.89E+01	-1.06E+01	-2.26E+01	7.99E+00
1070.5	1.17E+01	-1.15E+01	-3.15E+01	1.75E+01
1071	8.70E+00	-3.44E+00	-3.98E+01	-2.61E+00
1071.5	-5.46E+00	-1.56E+01	-5.59E+01	-1.50E+01
1072	1.58E+00	-2.73E+01	-4.73E+01	-2.10E+01
1072.5	7.89E+00	-2.77E+01	-2.68E+01	-2.15E+01
1073	1.34E+01	-2.29E+01	-1.75E+01	-1.77E+01
1073.5	2.19E+01	-1.18E+01	-1.42E+01	-6.03E+00
1074	8.74E+00	8.12E+00	-6.04E+00	-5.47E+00
1074.5	-1.29E+01	1.77E+01	-1.83E+01	-1.28E+01
1075	-2.71E+01	1.12E+01	-1.83E+01	-2.42E+01
1075.5	-2.58E+01	6.70E+00	-9.89E+00	-1.83E+01
1076	-1.38E+01	-2.43E+00	1.23E+01	-2.15E+01
1076.5	-2.16E+00	-2.88E+00	9.70E+00	5.90E+00
1077	-7.95E+00	-4.34E+00	6.54E+00	2.47E+01
1077.5	-2.10E+01	7.31E-02	-6.78E+00	3.64E+01
1078	-4.00E+01	1.17E+00	-6.99E+00	4.42E+01
1078.5	-5.54E+01	-5.21E+00	-8.28E+00	5.57E+01
1079	-5.16E+01	-8.79E+00	-7.00E+00	5.46E+01
1079.5	-2.52E+01	-1.31E+01	9.09E+00	5.17E+01
1080	1.01E+01	-2.08E+01	2.43E+01	4.55E+01
1080.5	3.77E+01	-2.24E+01	1.99E+01	4.24E+01
1081	3.49E+01	-1.64E+01	2.96E+01	2.14E+01
1081.5	3.46E+01	2.66E+00	4.73E+01	1.21E+01
1082	3.56E+01	2.11E+01	4.05E+01	1.06E+01
1082.5	2.09E+01	2.84E+01	3.82E+01	9.60E-02
1083	1.32E+01	3.23E+01	4.08E+01	-1.10E+01
1083.5	1.99E+01	2.50E+01	2.56E+01	-1.89E+01
1084	1.94E+01	8.63E+00	8.76E+00	-2.62E+01
1084.5	6.14E+00	1.49E+01	2.03E+00	-2.72E+01
1085	7.31E+00	3.52E+01	-1.44E+01	-3.56E+01
1085.5	2.49E+01	4.91E+01	-1.44E+01	-1.85E+01
1086	2.93E+01	6.69E+01	-8.39E+00	-1.10E+01
1086.5	3.37E+01	7.23E+01	-2.52E+01	-1.78E+01
1087	4.26E+01	7.61E+01	-2.66E+01	3.66E+00
1087.5	3.73E+01	6.78E+01	-4.81E+00	2.39E+01
1088	3.50E+01	5.69E+01	-1.15E+01	3.74E+01
1088.5	3.51E+01	5.89E+01	-2.78E+00	5.02E+01
1089	2.80E+01	5.39E+01	1.03E+01	5.20E+01
1089.5	2.30E+01	4.36E+01	-6.29E-01	3.45E+01
1090	1.60E+01	3.31E+01	-8.77E+00	1.56E+01
1090.5	-1.09E+01	1.35E+01	-1.07E+01	5.11E+00
1091	-4.02E+01	-4.31E+00	-1.19E+01	-8.97E+00
1091.5	-4.19E+01	1.95E-01	-1.69E+01	-2.14E+01
1092	-5.45E+01	-4.56E+00	-4.22E+01	-2.30E+01
1092.5	-5.87E+01	7.23E+00	-5.66E+01	-2.76E+01
1093	-4.51E+01	1.56E+01	-4.84E+01	-2.58E+01
1093.5	-3.53E+01	2.12E+01	-4.06E+01	-1.33E+01
1094	-4.69E+01	2.22E+01	-3.24E+01	-1.02E+01
1094.5	-4.57E+01	1.90E+01	-1.92E+01	-2.17E+01
1095	-4.09E+01	9.63E+00	-2.47E+01	-3.40E+01
1095.5	-3.24E+01	1.58E+01	-3.67E+01	-4.08E+01
1096	-8.90E+00	1.47E+01	-4.51E+01	-3.99E+01
1096.5	1.95E+01	7.63E+00	-3.48E+01	-3.83E+01
1097	2.18E+01	2.27E+01	-3.67E+01	-2.37E+01
1097.5	2.03E+01	1.22E+01	-4.10E+01	-2.34E+01
1098	7.40E+00	-9.27E+00	-5.19E+01	-3.14E+01
1098.5	7.20E+00	-8.30E+00	-3.79E+01	-2.54E+01
1099	3.91E+00	-1.62E+00	-1.67E+01	-7.04E+00
1099.5	1.55E+01	5.18E+00	-5.00E+00	1.44E+01
1100	2.17E+01	1.65E+01	1.11E+01	3.78E+01
1100.5	1.30E+01	3.02E+01	2.47E+01	4.47E+01
1101	1.19E+01	3.21E+01	1.04E+01	4.71E+01
1101.5	-8.56E-02	2.68E+01	1.29E+01	2.89E+01
1102	-7.47E+00	3.43E+01	1.54E+01	2.84E+01
1102.5	-2.93E+01	4.50E+01	8.85E+00	3.05E+01
1103	-3.06E+01	2.90E+01	1.28E+01	4.07E+01
1103.5	-3.11E+01	2.16E+01	1.29E+01	4.29E+01
1104	-3.05E+01	1.97E+01	-2.30E+00	5.45E+01
1104.5	-2.44E+01	1.02E+01	-6.66E-01	5.04E+01
1105	-6.06E+00	8.71E+00	-1.42E+00	4.27E+01
1105.5	1.05E+01	1.43E+01	3.81E+00	4.18E+01
1106	1.45E+01	8.17E+00	1.28E+01	4.21E+01
1106.5	6.95E+00	1.32E+01	1.73E+01	4.27E+01
1107	5.11E+00	1.64E+01	2.48E+01	3.82E+01
1107.5	4.96E+00	1.19E+01	2.73E+01	3.77E+01
1108	-4.41E+00	4.69E+00	1.36E+00	1.84E+01
1108.5	1.88E+01	-4.79E+00	1.11E+01	-1.24E+01
1109	3.74E+01	-1.35E+01	1.77E+01	-3.29E+01
1109.5	3.79E+01	-1.22E+01	8.83E+00	-4.48E+01
1110	3.12E+01	9.78E-01	1.27E+01	-5.90E+01
1110.5	1.80E+01	1.91E+01	2.45E+01	-4.38E+01
1111	1.81E-01	3.21E+01	2.93E+01	-2.15E+01
1111.5	-7.79E+00	3.66E+01	3.55E+01	-7.86E+00
1112	-4.26E+00	4.05E+01	4.04E+01	2.24E+01
1112.5	-3.96E+00	2.93E+01	4.42E+01	4.21E+01
1113	-7.06E+00	2.14E+01	3.95E+01	2.59E+01
1113.5	-1.18E+00	1.00E+01	3.84E+01	2.62E+01
1114	-1.07E+01	3.70E-01	1.87E+01	6.13E+00
1114.5	-1.51E+01	-1.34E+01	1.49E+01	-2.39E+01
1115	-4.00E+00	-1.87E+01	1.59E+01	-1.81E+01
1115.5	3.65E+00	-3.13E+01	1.72E+01	-2.65E+00
1116	1.05E+01	-3.47E+01	2.49E+01	-1.51E+00
1116.5	1.31E+01	-4.49E+01	2.32E+01	1.99E+01
1117	6.73E+00	-3.99E+01	9.85E+00	2.46E+01
1117.5	-2.38E+01	-4.49E+01	-1.03E+01	2.06E+00
1118	-5.01E+01	-4.97E+01	-3.56E+01	4.76E-01
1118.5	-5.99E+01	-4.02E+01	-3.25E+01	8.88E+00
1119	-4.01E+01	-2.92E+01	-1.75E+01	8.04E+00
1119.5	-2.02E+01	-3.07E+01	-2.89E+00	2.80E+01
1120	1.50E+01	5.71E+00	2.87E+01	3.78E+01
1120.5	3.36E+01	1.31E+01	4.09E+01	2.83E+01
1121	3.44E+01	8.81E+00	3.30E+01	1.48E+01
1121.5	2.11E+01	4.23E+00	2.56E+01	4.90E+00
1122	1.75E+01	-1.29E+01	1.33E+01	-3.99E+00
1122.5	1.60E+01	-3.42E+01	-6.29E+00	-9.17E+00
1123	3.98E+00	-4.30E+01	-1.44E+01	-1.87E+01
1123.5	-3.70E+00	-4.89E+01	-1.81E+01	-2.13E+01
1124	-1.97E+00	-4.60E+01	-2.45E+01	-1.25E+01
1124.5	-9.05E+00	-3.58E+01	-2.68E+01	-8.44E+00
1125	-2.11E+01	-3.61E+01	-1.07E+01	6.55E+00
1125.5	-2.36E+01	-4.01E+01	-2.60E+00	2.15E+01
1126	-3.69E+01	-4.01E+01	-6.74E+00	2.34E+01
1126.5	-6.15E+01	-4.43E+01	-1.82E+01	1.80E+01
1127	-7.86E+01	-3.73E+01	-2.01E+01	1.78E+01
1127.5	-6.33E+01	-1.87E+01	-5.07E-02	1.94E+01
1128	-5.92E+01	-8.87E+00	2.09E+01	1.80E+01
1128.5	-5.29E+01	-6.23E-01	4.65E+01	1.30E+01
1129	-3.44E+01	-1.13E-01	6.92E+01	7.77E+00
1129.5	-1.62E+01	4.99E-01	5.29E+01	-8.94E+00
1130	-2.54E+01	-5.45E+00	2.32E+01	-2.49E+01
1130.5	-2.59E+01	-1.43E+01	3.08E+00	-2.14E+01
1131	-2.86E+01	-1.45E+01	-1.38E+01	-1.67E+01
1131.5	-4.26E+01	-1.74E+01	-2.90E+01	-2.96E+01
1132	-6.72E+01	-2.27E+01	-2.14E+01	-8.14E+00
1132.5	-3.19E+01	-4.67E+00	-1.55E+00	1.85E+01
1133	-1.30E+01	1.56E+01	1.97E+01	6.49E+00
1133.5	-3.52E+00	4.84E+01	3.64E+01	1.81E+00
1134	1.59E+01	7.10E+01	4.29E+01	9.51E-01
1134.5	2.69E+01	8.14E+01	4.80E+01	-1.89E+01
1135	2.18E+01	9.24E+01	4.95E+01	-3.20E+01
1135.5	2.12E+01	8.82E+01	5.33E+01	-1.82E+01
1136	1.62E+01	6.56E+01	5.61E+01	-8.39E+00
1136.5	1.57E+01	5.66E+01	5.56E+01	-5.44E+00
1137	8.85E+00	4.36E+01	4.07E+01	2.53E+01
1137.5	7.72E+00	1.88E+01	2.11E+01	4.21E+01
1138	-4.78E+00	-4.66E+00	1.19E+01	3.36E+01
1138.5	-8.08E+00	7.56E+00	5.09E+00	4.22E+01
1139	-9.88E+00	5.37E+00	-9.45E+00	3.68E+01
1139.5	-8.29E+00	-6.19E+00	-1.19E+01	1.34E+01
1140	-1.42E+01	3.66E-01	-2.09E+01	2.99E+00
1140.5	-5.80E+00	8.21E+00	-3.05E+01	3.20E+00
1141	9.42E-01	8.74E+00	-2.67E+01	-8.77E+00
1141.5	-5.81E+00	1.03E+01	-2.71E+01	-1.55E+01
1142	-7.19E+00	5.70E+00	-2.56E+01	-1.44E+01
1142.5	-1.64E+01	-4.80E+00	-1.85E+01	-2.88E+01
1143	-1.51E+01	2.61E-01	-1.65E+01	-2.06E+01
1143.5	-1.21E+01	1.16E+01	-4.39E+00	-7.47E-02
1144	-1.49E+01	3.03E+01	7.79E+00	-4.16E+00
1144.5	-1.94E+01	4.64E+01	1.25E+01	7.95E+00
1145	-5.63E+00	4.52E+01	1.36E+01	2.52E+01
1145.5	-7.10E+00	2.32E+01	1.80E+00	1.60E+01
1146	-9.75E+00	-1.44E+01	-5.38E+00	1.35E+01
1146.5	4.19E+00	-3.22E+01	-6.59E+00	4.29E+00
1147	6.61E+00	-2.36E+01	-2.84E+00	-1.69E+01
1147.5	1.12E+01	5.83E+00	1.63E+01	-3.46E+01
1148	2.74E+01	4.35E+01	4.32E+01	-3.34E+01
1148.5	3.23E+01	7.62E+01	5.33E+01	-1.73E+01
1149	3.00E+01	8.63E+01	3.71E+01	-1.08E+01
1149.5	2.90E+01	5.91E+01	1.72E+01	7.51E-01
1150	1.41E+01	3.24E+01	-3.71E+00	4.21E+00
1150.5	-8.67E+00	1.12E+01	-1.23E+01	-7.58E+00
1151	-1.98E+01	1.16E+01	-1.05E+01	-7.39E+00
1151.5	-9.34E+00	2.30E+01	-3.86E+00	7.34E+00
1152	-7.63E+00	3.16E+01	-1.42E+01	2.46E+01
1152.5	-4.44E-01	2.52E+01	-1.31E+01	3.29E+01
1153	-6.27E+00	1.63E+01	-1.59E+01	4.30E+01
1153.5	-1.34E+01	1.06E+01	-9.55E+00	3.96E+01
1154	-5.54E+00	2.98E+01	1.67E+01	4.55E+01
1154.5	-3.04E+00	5.34E+01	2.94E+01	3.90E+01
1155	-9.79E+00	6.19E+01	4.13E+01	2.61E+01
1155.5	-5.46E+00	5.60E+01	6.05E+01	2.61E+01
1156	-1.77E+01	3.39E+01	5.85E+01	8.62E+00
1156.5	-2.02E+01	-3.03E+00	3.55E+01	-8.46E+00
1157	-1.49E+01	-2.83E+01	2.69E+01	-8.98E+00
1157.5	-8.80E+00	-5.28E+01	-4.91E-01	-1.08E+01
1158	6.77E+00	-4.82E+01	-1.47E+01	-3.59E+01
1158.5	6.30E+00	-2.99E+01	-3.37E+01	-3.54E+01
1159	-1.10E+01	-7.79E+00	-1.74E+01	-2.50E+01
1159.5	-8.59E+00	1.65E+01	9.24E-01	2.90E+00
1160	-1.24E-01	2.57E+01	-9.05E+00	1.31E+01
1160.5	1.18E+00	2.00E+01	-1.64E+01	2.78E+01
1161	-6.49E+00	6.59E+00	-1.64E+01	4.33E+01
1161.5	-1.11E+01	-4.10E+00	-2.03E+01	3.53E+01
1162	-1.67E+01	-5.49E-01	-1.24E+01	1.39E+01
1162.5	-1.98E+01	1.03E+01	5.38E+00	1.54E+01
1163	-7.69E+00	3.61E+00	2.73E+01	2.07E+01
1163.5	4.79E+01	-2.08E+00	3.66E+01	2.14E+01
1164	-1.43E+00	-3.36E+01	2.26E+01	4.99E+01
1164.5	-2.29E-01	-1.06E+00	6.00E-01	1.51E+00
