#wavelength [nm]	n	k
300	1.5527702635739	2.8607E-06
322	1.5458699289209	0
344	1.5404466868331	0
366	1.536090527917	0
388	1.53252773217	0
410	1.529568767224	0
432	1.5270784291406	0
454	1.5249578457324	0
476	1.5231331738499	0
498	1.5215482528369	0
520	1.5201596882463	0
542	1.5189334783109	0
564	1.5178426478869	0
586	1.516865556749	0
608	1.5159846691816	0
630	1.5151856452759	0
652	1.5144566604975	0
674	1.513787889767	0
696	1.5131711117948	0
718	1.5125994024544	0
740	1.5120668948646	0
762	1.5115685899969	0
784	1.5111002059336	0
806	1.5106580569705	0
828	1.5102389559626	0
850	1.5098401349174	0
872	1.5094591800239	0
894	1.5090939781792	0
916	1.5087426727363	0
938	1.5084036266923	0
960	1.5080753919142	0
982	1.5077566832938	0
1004	1.5074463569456	0
1026	1.5071433917383	0
1048	1.5068468735887	0
1070	1.5065559820529	0
1092	1.5062699788386	0
1114	1.5059881979287	0
1136	1.5057100370628	0
1158	1.5054349503657	0
1180	1.5051624419507	0
1202	1.5048920603512	0
1224	1.504623393661	0
1246	1.5043560652815	0
1268	1.5040897301904	0
1290	1.5038240716592	0
1312	1.5035587983604	0
1334	1.5032936418104	0
1356	1.5030283541053	0
1378	1.502762705911	0
1400	1.5024964846769	0
1422	1.5022294930427	0
1444	1.5019615474168	0
1466	1.5016924767046	0
1488	1.5014221211688	0
1510	1.5011503314064	0
1532	1.5008769674285	0
1554	1.5006018978322	0
1576	1.5003249990526	0
1598	1.5000461546874	0
1620	1.4997652548858	0
1642	1.4994821957943	0
1664	1.4991968790539	0
1686	1.4989092113428	0
1708	1.4986191039608	0
1730	1.4983264724496	0
1752	1.4980312362468	0
1774	1.49773331837	0
1796	1.4974326451267	0
1818	1.4971291458495	0
1840	1.4968227526526	0
1862	1.4965134002084	0
1884	1.4962010255422	0
1906	1.4958855678422	0
1928	1.495566968286	0
1950	1.4952451698788	0
1972	1.4949201173049	0
1994	1.4945917567902	0
2016	1.4942600359742	0
2038	1.4939249037922	0
2060	1.4935863103651	0
2082	1.4932442068978	0
2104	1.4928985455839	0
2126	1.492549279517	0
2148	1.4921963626087	0
2170	1.491839749511	0
2192	1.4914793955446	0
2214	1.4911152566309	0
2236	1.4907472892292	0
2258	1.4903754502768	0
2280	1.4899996971337	0
2302	1.4896199875296	0
2324	1.4892362795147	0
2346	1.4888485314127	0
2368	1.4884567017771	0
2390	1.4880607493487	0
2412	1.4876606330169	0
2434	1.4872563117813	0
2456	1.4868477447166	0
2478	1.4864348909385	0
2500	1.486017709571	8.13E-06

